Name,WeightClassKg,Division,AgeRange,Age,Sex,Best3SquatKg,Best3BenchKg,Best3DeadliftKg,TotalKg,Event,Equipment,Place
R. Hatcher,44,Masters 45-49,45-49,,F,60,35,87.5,182.5,SBD,Single-ply,1
G. Schroeder,48,Masters 40-44,40-44,,F,82.5,55,105,242.5,SBD,Single-ply,1
N. Smith,48,Masters 50-54,50-54,,F,87.5,40,115,242.5,SBD,Single-ply,1
Jean Howat,56,Masters 40-44,40-44,,F,97.5,50,120,267.5,SBD,Single-ply,1
N. Lango,56,Masters 50-54,50-54,,F,100,55,132.5,287.5,SBD,Single-ply,1
Joyce Alcouloumre,60,Masters 55-59,55-59,,F,75,42.5,100,217.5,SBD,Single-ply,1
J. McVeagh,67.5,Masters 40-44,40-44,,F,95,50,110,255,SBD,Single-ply,1
Evangeline Kizer,67.5,Masters 45-49,45-49,,F,142.5,67.5,177.5,387.5,SBD,Single-ply,1
Gwen Patillo,67.5,Masters 55-59,55-59,,F,72.5,55,122.5,250,SBD,Single-ply,1
Mary Coffery,75,Masters 40-44,40-44,,F,67.5,37.5,122.5,227.5,SBD,Single-ply,1
Gretchen Buerki,75,Masters 45-49,45-49,,F,137.5,77.5,165,380,SBD,Single-ply,1
Larry Howe,52,Masters 45-49,45-49,,M,135,82.5,135,352.5,SBD,Single-ply,1
Gerald Ringi,56,Masters 40-44,40-44,,M,182.5,110,182.5,475,SBD,Single-ply,1
Alex Galant,56,Masters 40-44,40-44,,M,137.5,97.5,175,410,SBD,Single-ply,2
Paul Trujillo,56,Masters 50-54,50-54,,M,157.5,97.5,175,430,SBD,Single-ply,1
D. Smith,56,Masters 55-59,55-59,,M,137.5,90,155,382.5,SBD,Single-ply,1
Larry Christ,60,Masters 40-44,40-44,,M,172.5,120,207.5,500,SBD,Single-ply,1
Carlos Tantog,60,Masters 50-54,50-54,,M,175,122.5,182.5,480,SBD,Single-ply,1
Fred Glass,60,Masters 50-54,50-54,,M,157.5,72.5,195,425,SBD,Single-ply,2
L. Brand,60,Masters 50-54,50-54,,M,75,50,115,240,SBD,Single-ply,3
Phil Neyer,60,Masters 55-59,55-59,,M,160,60,195,415,SBD,Single-ply,1
Jim Benson #2,67.5,Masters 40-44,40-44,,M,197.5,115,222.5,535,SBD,Single-ply,1
S. Brovin,67.5,Masters 40-44,40-44,,M,190,117.5,220,527.5,SBD,Single-ply,2
M. Allain,67.5,Masters 40-44,40-44,,M,180,122.5,185,487.5,SBD,Single-ply,3
Ron Scott,67.5,Masters 40-44,40-44,,M,170,92.5,200,462.5,SBD,Single-ply,4
D. Storal,67.5,Masters 40-44,40-44,,M,160,115,182.5,457.5,SBD,Single-ply,5
Mike Lawson,67.5,Masters 45-49,45-49,,M,227.5,110,210,547.5,SBD,Single-ply,1
James Capehart,67.5,Masters 45-49,45-49,,M,185,115,187.5,487.5,SBD,Single-ply,2
Larry Mintz,67.5,Masters 50-54,50-54,,M,240,97.5,200,537.5,SBD,Single-ply,1
Max Peek #1,67.5,Masters 50-54,50-54,,M,172.5,97.5,190,460,SBD,Single-ply,2
Robert Cortes,67.5,Masters 55-59,55-59,,M,192.5,127.5,197.5,517.5,SBD,Single-ply,1
John Morgan,67.5,Masters 60-64,60-64,,M,115,95,100,310,SBD,Single-ply,1
J. French,67.5,Masters 65-69,65-69,,M,67.5,75,112.5,255,SBD,Single-ply,1
Jack van Sise,67.5,Masters 70-74,70-74,,M,97.5,60,142.5,300,SBD,Single-ply,1
Gordon Santee,75,Masters 40-44,40-44,,M,245,172.5,247.5,665,SBD,Single-ply,1
Troy Hicks,75,Masters 40-44,40-44,,M,230,137.5,277.5,645,SBD,Single-ply,2
D. Smith,75,Masters 40-44,40-44,,M,215,120,225,560,SBD,Single-ply,3
James Christian #1,75,Masters 40-44,40-44,,M,187.5,130,227.5,545,SBD,Single-ply,4
Jim Yakubovsky,75,Masters 40-44,40-44,,M,177.5,87.5,217.5,482.5,SBD,Single-ply,5
Dave Dryden,75,Masters 40-44,40-44,,M,210,,,,SBD,Single-ply,DQ
M. Castelli,75,Masters 45-49,45-49,,M,220,110,220,550,SBD,Single-ply,1
Glen Gill,75,Masters 55-59,55-59,,M,215,182.5,200,597.5,SBD,Single-ply,1
Ed Hamblin,75,Masters 55-59,55-59,,M,195,120,215,530,SBD,Single-ply,2
Bill Ramsrud,75,Masters 60-64,60-64,,M,182.5,127.5,232.5,542.5,SBD,Single-ply,1
Dick Giller,75,Masters 60-64,60-64,,M,182.5,137.5,220,540,SBD,Single-ply,2
Martin Garry,75,Masters 60-64,60-64,,M,197.5,112.5,185,495,SBD,Single-ply,3
M. Guadagnoli,75,Masters 60-64,60-64,,M,120,90,147.5,357.5,SBD,Single-ply,4
Fred Archambault,75,Masters 65-69,65-69,,M,150,90,160,400,SBD,Single-ply,1
Harrison Benner,75,Masters 65-69,65-69,,M,132.5,100,145,377.5,SBD,Single-ply,2
Fabian Wambsgans,82.5,Masters 40-44,40-44,,M,260,170,275,705,SBD,Single-ply,1
B. Johnson,82.5,Masters 40-44,40-44,,M,277.5,150,255,682.5,SBD,Single-ply,2
E. Phillips,82.5,Masters 40-44,40-44,,M,260,152.5,265,677.5,SBD,Single-ply,3
Alan Ouye,82.5,Masters 40-44,40-44,,M,255,157.5,227.5,640,SBD,Single-ply,4
Keith Hartman,82.5,Masters 40-44,40-44,,M,252.5,112.5,262.5,627.5,SBD,Single-ply,5
B. Hauser,82.5,Masters 45-49,45-49,,M,210,150,232.5,592.5,SBD,Single-ply,1
J. Caldwell,82.5,Masters 45-49,45-49,,M,182.5,115,220,517.5,SBD,Single-ply,2
Chet Thomas,82.5,Masters 50-54,50-54,,M,220,145,230,595,SBD,Single-ply,1
Jim Merlino,82.5,Masters 50-54,50-54,,M,165,170,200,535,SBD,Single-ply,2
Don Ghareeb,82.5,Masters 55-59,55-59,,M,172.5,125,202.5,500,SBD,Single-ply,1
Jim Lem,82.5,Masters 60-64,60-64,60,M,272.5,127.5,265,665,SBD,Single-ply,1
Henri Soudieres,82.5,Masters 75+,75-999,,M,92.5,72.5,120,285,SBD,Single-ply,1
J. McDougal,90,Masters 40-44,40-44,,M,280,200,282.5,762.5,SBD,Single-ply,1
Johnny McDaniel,90,Masters 40-44,40-44,,M,235,195,240,670,SBD,Single-ply,2
C. Taylor,90,Masters 40-44,40-44,,M,205,155,227.5,587.5,SBD,Single-ply,3
Dennis Mogusar,90,Masters 40-44,40-44,,M,205,140,222.5,567.5,SBD,Single-ply,4
Richard Herrick,90,Masters 40-44,40-44,,M,185,122.5,230,537.5,SBD,Single-ply,5
B. Jones,90,Masters 40-44,40-44,,M,187.5,137.5,205,530,SBD,Single-ply,6
D. Osterhout,90,Masters 40-44,40-44,,M,197.5,110,182.5,490,SBD,Single-ply,7
Dan Hamblet,90,Masters 45-49,45-49,,M,277.5,177.5,285,740,SBD,Single-ply,1
Rüdiger Pfeiffer,90,Masters 45-49,45-49,,M,275,180,267.5,722.5,SBD,Single-ply,2
Ken Carpenter,90,Masters 45-49,45-49,,M,250,200,227.5,677.5,SBD,Single-ply,3
Denny Taylor,90,Masters 45-49,45-49,,M,260,165,245,670,SBD,Single-ply,4
J. Hurst,90,Masters 45-49,45-49,,M,227.5,167.5,250,645,SBD,Single-ply,5
Mortie Hamilton,90,Masters 45-49,45-49,,M,215,150,230,595,SBD,Single-ply,6
Bob Strange,90,Masters 50-54,50-54,,M,227.5,145,250,622.5,SBD,Single-ply,1
J. Adams,90,Masters 50-54,50-54,,M,272.5,,,,SBD,Single-ply,DQ
Fred Mullin,90,Masters 55-59,55-59,,M,220,132.5,225,577.5,SBD,Single-ply,1
Bill Remley,90,Masters 55-59,55-59,,M,207.5,130,220,557.5,SBD,Single-ply,2
Burt Rosenfield,90,Masters 55-59,55-59,,M,192.5,135,220,547.5,SBD,Single-ply,3
Fred Simmonds,90,Masters 55-59,55-59,,M,172.5,97.5,210,480,SBD,Single-ply,4
P. Boyles,90,Masters 60-64,60-64,,M,182.5,85,190,457.5,SBD,Single-ply,1
Larry McCauley,90,Masters 60-64,60-64,,M,240,,,,SBD,Single-ply,DQ
Chuck Lee,90,Masters 65-69,65-69,,M,155,115,200,470,SBD,Single-ply,1
Denny Thompson,100,Masters 40-44,40-44,,M,320,207.5,295,822.5,SBD,Single-ply,1
C. Plano,100,Masters 40-44,40-44,,M,250,147.5,275,672.5,SBD,Single-ply,2
J. Bowman,100,Masters 40-44,40-44,,M,245,160,240,645,SBD,Single-ply,3
T. Harris,100,Masters 40-44,40-44,,M,230,155,242.5,627.5,SBD,Single-ply,4
Charles Beane,100,Masters 40-44,40-44,,M,227.5,125,227.5,580,SBD,Single-ply,5
Omar Lomba,100,Masters 45-49,45-49,,M,320,220,302.5,842.5,SBD,Single-ply,1
Ronnie Ray Sr,100,Masters 45-49,45-49,,M,282.5,235,275,792.5,SBD,Single-ply,2
Jim Krise,100,Masters 45-49,45-49,,M,272.5,180,262.5,715,SBD,Single-ply,3
George Zangas,100,Masters 45-49,45-49,,M,260,160,280,700,SBD,Single-ply,4
Jerry Engelbert,100,Masters 50-54,50-54,,M,282.5,147.5,310,740,SBD,Single-ply,1
Brian Mooney,100,Masters 50-54,50-54,,M,272.5,160,265,697.5,SBD,Single-ply,2
Tom Bauers,100,Masters 50-54,50-54,,M,,,,,SBD,Single-ply,DQ
D. Johnson,100,Masters 55-59,55-59,,M,265,155,242.5,662.5,SBD,Single-ply,1
Harrell Holly,100,Masters 55-59,55-59,,M,242.5,142.5,235,620,SBD,Single-ply,2
Paul Haberman,100,Masters 55-59,55-59,,M,222.5,145,235,602.5,SBD,Single-ply,3
R. Gilliland,100,Masters 55-59,55-59,,M,185,107.5,190,482.5,SBD,Single-ply,4
J. Woods,100,Masters 55-59,55-59,,M,180,105,180,465,SBD,Single-ply,5
Rex Monahan,100,Masters 60-64,60-64,,M,127.5,80,150,357.5,SBD,Single-ply,1
Ernie Nagy,100,Masters 65-69,65-69,,M,170,165,200,535,SBD,Single-ply,1
S. Robak,100,Masters 65-69,65-69,,M,137.5,112.5,182.5,432.5,SBD,Single-ply,2
Dusty Caldwell,110,Masters 40-44,40-44,,M,317.5,200,337.5,855,SBD,Single-ply,1
Joe Seager,110,Masters 40-44,40-44,,M,355,170,282.5,807.5,SBD,Single-ply,2
Glen Stevans,110,Masters 40-44,40-44,,M,320,185,292.5,797.5,SBD,Single-ply,3
James Hodges,110,Masters 40-44,40-44,,M,277.5,150,315,742.5,SBD,Single-ply,4
C. Evans,110,Masters 40-44,40-44,,M,272.5,,,,SBD,Single-ply,DQ
S. Miller,110,Masters 40-44,40-44,,M,,,,,SBD,Single-ply,DQ
Gene Roberson,110,Masters 45-49,45-49,,M,305,172.5,317.5,795,SBD,Single-ply,1
John DuMont,110,Masters 45-49,45-49,,M,317.5,175,300,792.5,SBD,Single-ply,2
Cliff Nestleroad,110,Masters 45-49,45-49,,M,295,177.5,275,747.5,SBD,Single-ply,3
Jim Duree,110,Masters 45-49,45-49,,M,265,125,265,655,SBD,Single-ply,4
Joe Dalton,110,Masters 50-54,50-54,,M,280,165,235,680,SBD,Single-ply,1
Curtis Walker,110,Masters 60-64,60-64,,M,257.5,175,240,672.5,SBD,Single-ply,1
R. Murphy,110,Masters 60-64,60-64,,M,240,157.5,237.5,635,SBD,Single-ply,2
Jack Kress,110,Masters 60-64,60-64,,M,227.5,157.5,235,620,SBD,Single-ply,3
Norman Bailey,110,Masters 60-64,60-64,,M,102.5,190,102.5,395,SBD,Single-ply,4
Jack Lano,110,Masters 65-69,65-69,,M,150,105,180,435,SBD,Single-ply,1
Brian Meek,125,Masters 40-44,40-44,,M,350,227.5,325,902.5,SBD,Single-ply,1
Richard Vaillancourt,125,Masters 40-44,40-44,,M,335,195,285,815,SBD,Single-ply,2
D. Mullins,125,Masters 40-44,40-44,,M,312.5,190,270,772.5,SBD,Single-ply,3
E. Gilbert,125,Masters 40-44,40-44,,M,282.5,160,295,737.5,SBD,Single-ply,4
Bill Shipp,125,Masters 40-44,40-44,,M,277.5,170,260,707.5,SBD,Single-ply,5
Aaron Rawlings,125,Masters 45-49,45-49,,M,295,190,340,825,SBD,Single-ply,1
L. Coleman,125,Masters 45-49,45-49,,M,210,162.5,292.5,665,SBD,Single-ply,2
G. Bruton,125,Masters 45-49,45-49,,M,237.5,147.5,250,635,SBD,Single-ply,3
Larry Kidney,125,Masters 45-49,45-49,,M,315,170,,,SBD,Single-ply,DQ
Hal Hudson,125,Masters 50-54,50-54,,M,255,157.5,272.5,685,SBD,Single-ply,1
Al Siegel,125,Masters 50-54,50-54,,M,237.5,140,255,632.5,SBD,Single-ply,2
Jay McVeagh,125,Masters 60-64,60-64,,M,182.5,132.5,215,530,SBD,Single-ply,1
Paul Wrenn,125+,Masters 40-44,40-44,,M,360,187.5,295,842.5,SBD,Single-ply,1
Luke Iams,125+,Masters 40-44,40-44,,M,340,245,110,695,SBD,Single-ply,2
B. Taylor,125+,Masters 45-49,45-49,,M,265,160,280,705,SBD,Single-ply,1
J. Meyers,125+,Masters 45-49,45-49,,M,230,172.5,227.5,630,SBD,Single-ply,2
Chuck Braxton,125+,Masters 50-54,50-54,,M,325,197.5,275,797.5,SBD,Single-ply,1
B. Miller #7,125+,Masters 50-54,50-54,,M,227.5,147.5,227.5,602.5,SBD,Single-ply,2
