Division,WeightClassKg,Place,Name,Team,BodyweightKg,Best3SquatKg,Best3BenchKg,Best3DeadliftKg,TotalKg,Equipment,Event,Sex
Boys,51.71,1,Michael Ramsey,Cross Plains,50.8,129.27,63.5,140.61,333.39,Single-ply,SBD,M
Boys,51.71,2,Jamie Smith,Comanche,49.17,115.67,65.77,113.4,294.84,Single-ply,SBD,M
Boys,51.71,3,Jesus Tonche,Waco Connally,50.89,102.06,61.23,127.01,290.3,Single-ply,SBD,M
Boys,51.71,4,Zachary Cain,Granbury,51.26,102.06,63.5,111.13,276.69,Single-ply,SBD,M
Boys,51.71,5,Jake Robertson,Clifton,45.81,97.52,63.5,111.13,272.16,Single-ply,SBD,M
Boys,51.71,6,Nick Vanhook,Lampasas,50.71,106.59,54.43,108.86,269.89,Single-ply,SBD,M
Boys,51.71,7,Mitul Patel,Cross Plains,46.27,90.72,47.63,102.06,240.4,Single-ply,SBD,M
Boys,51.71,8,Alberto Rodriguez,Fort Worth North Side,49.35,90.72,52.16,90.72,233.6,Single-ply,SBD,M
Boys,51.71,9,Jacob Lewis,Stephenville,42.18,97.52,45.36,83.91,226.8,Single-ply,SBD,M
Boys,51.71,10,Ledarreyon Daniels,Fort Worth Polytechnic,45.09,79.38,45.36,79.38,204.12,Single-ply,SBD,M
Boys,51.71,11,Dylan Whitlock,Glen Rose,47.17,68.04,29.48,79.38,176.9,Single-ply,SBD,M
Boys,51.71,DQ,Dakota Martinez,Stephenville,49.9,,,,,Single-ply,SBD,M
Boys,51.71,DQ,Storm Snyder,Stephenville,51.71,,,,,Single-ply,SBD,M
Boys,55.79,1,Ricardo Pina,Comanche,55.79,138.35,79.38,147.42,365.14,Single-ply,SBD,M
Boys,59.87,2,Alvin Cole,Brady,55.88,127.01,68.04,145.15,340.19,Single-ply,SBD,M
Boys,59.87,3,Nathan Smith #9,Glen Rose,55.97,111.13,70.31,140.61,322.05,Single-ply,SBD,M
Boys,55.79,4,Colton McWilliams,Cross Plains,55.79,127.01,54.43,124.74,306.17,Single-ply,SBD,M
Boys,59.87,5,Carlin Linnaberry,Glen Rose,55.88,117.93,68.04,117.93,303.91,Single-ply,SBD,M
Boys,55.79,6,Chris Ramirez,Lampasas,53.61,99.79,61.23,131.54,292.57,Single-ply,SBD,M
Boys,55.79,7,Justus Alanize,Lometa,55.43,117.93,56.7,113.4,288.03,Single-ply,SBD,M
Boys,59.87,8,Joe Sosa,Fort Worth North Side,55.97,102.06,56.7,120.2,278.96,Single-ply,SBD,M
Boys,55.79,9,Blake Thompson,Stephenville,55.79,83.91,52.16,124.74,260.82,Single-ply,SBD,M
Boys,55.79,10,Nelson Musgrave,Waco Connally,52.34,90.72,52.16,97.52,240.4,Single-ply,SBD,M
Boys,59.87,1,Morgan Kirkpatrick,Granbury,59.42,161.03,95.25,176.9,433.18,Single-ply,SBD,M
Boys,59.87,2,Ray Lopez,Granbury,57.61,158.76,97.52,172.37,428.64,Single-ply,SBD,M
Boys,67.13,3,Adrian Zackery,Lampasas,60.1,142.88,72.57,170.1,385.55,Single-ply,SBD,M
Boys,59.87,4,JraMarquise DeGrate,Waco University,57.97,140.61,79.38,156.49,376.48,Single-ply,SBD,M
Boys,59.87,5,Melvin Flores,Lampasas,59.6,147.42,74.84,140.61,362.87,Single-ply,SBD,M
Boys,59.87,6,Terry Johnson,Fort Worth Wyatt,58.69,124.74,83.91,151.95,360.61,Single-ply,SBD,M
Boys,59.87,7,Mario Quintero,Clifton,58.97,138.35,77.11,142.88,358.34,Single-ply,SBD,M
Boys,59.87,8,Tyler Madsen,Fort Worth Western Hills,59.87,120.2,70.31,151.95,342.46,Single-ply,SBD,M
Boys,59.87,9,AJ Alvarez,Clifton,59.24,129.27,68.04,117.93,315.25,Single-ply,SBD,M
Boys,59.87,10,Dakkota Murray,Brady,59.87,124.74,61.23,122.47,308.44,Single-ply,SBD,M
Boys,59.87,11,Marco Munoz,Lampasas,58.51,113.4,68.04,124.74,306.17,Single-ply,SBD,M
Boys,59.87,12,Tristen Stephenson,Cross Plains,59.87,113.4,52.16,136.08,301.64,Single-ply,SBD,M
Boys,59.87,13,Triston Dobson,Stephenville,59.87,92.99,54.43,111.13,258.55,Single-ply,SBD,M
Boys,59.87,DQ,Rhett Edwards,Stephenville,58.97,106.59,70.31,127.01,,Single-ply,SBD,M
Boys,59.87,DQ,Justin Merdrano,Brady,59.87,-122.47,,,,Single-ply,SBD,M
Boys,67.13,1,Mark New,Clifton,65.5,163.29,106.59,185.97,455.86,Single-ply,SBD,M
Boys,67.13,2,Marcelino Coronado,Clifton,64.68,172.37,99.79,179.17,451.32,Single-ply,SBD,M
Boys,67.13,3,Cameron Terrell,Waco Connally,63.96,151.95,83.91,174.63,410.5,Single-ply,SBD,M
Boys,67.13,4,Ian Valdez,Glen Rose,66.13,158.76,81.65,170.1,410.5,Single-ply,SBD,M
Boys,67.13,5,Colton Hill,Rising Star,61.6,142.88,77.11,185.97,405.97,Single-ply,SBD,M
Boys,67.13,6,Corey Carter,Fort Worth Western Hills,66.68,151.95,79.38,174.63,405.97,Single-ply,SBD,M
Boys,74.84,7,Josh Zarazua,Waco University,67.31,136.08,88.45,151.95,376.48,Single-ply,SBD,M
Boys,67.13,8,Donald Coffman,Glen Rose,64.68,108.86,72.57,158.76,340.19,Single-ply,SBD,M
Boys,67.13,9,Jeordan Strain,Granbury,63.05,113.4,83.91,140.61,337.93,Single-ply,SBD,M
Boys,67.13,10,Knijan Williams,Lampasas,62.6,113.4,61.23,142.88,317.51,Single-ply,SBD,M
Boys,67.13,11,Angus Worcester,Cross Plains,66.68,120.2,56.7,140.61,317.51,Single-ply,SBD,M
Boys,67.13,12,Tyler Orocu,Fort Worth Western Hills,60.33,115.67,72.57,124.74,312.98,Single-ply,SBD,M
Boys,67.13,13,Jeffery Maldanodo,Fort Worth Trimble Tech,63.05,117.93,72.57,120.2,310.71,Single-ply,SBD,M
Boys,67.13,14,Wes Lundy,Stephenville,66.22,102.06,68.04,136.08,306.17,Single-ply,SBD,M
Boys,67.13,15,Damarcus Baisy,Waco University,64.59,99.79,61.23,124.74,285.76,Single-ply,SBD,M
Boys,67.13,DQ,Drew Patterson,Stephenville,63.5,79.38,56.7,104.33,,Single-ply,SBD,M
Boys,67.13,DQ,Luis Munoz #5,Stephenville,63.5,111.13,68.04,113.4,,Single-ply,SBD,M
Boys,67.13,DQ,Charles Cain,Stephenville,64.86,,,,,Single-ply,SBD,M
Boys,67.13,DQ,Guy Wright,Granbury,64.86,99.79,,,,Single-ply,SBD,M
Boys,67.13,DQ,Brandon Borom,Clifton,66.04,,,,,Single-ply,SBD,M
Boys,67.13,DQ,Nick Davila,Millsap,65.32,,,,,Single-ply,SBD,M
Boys,74.84,1,Alex Scallion,Castleberry,70.76,185.97,102.06,172.37,460.4,Single-ply,SBD,M
Boys,74.84,2,Kat Leal,Rising Star,69.49,158.76,97.52,181.44,437.72,Single-ply,SBD,M
Boys,74.84,3,Saul Lopez,Comanche,74.57,158.76,106.59,172.37,437.72,Single-ply,SBD,M
Boys,74.84,4,Dylan White,Stephenville,74.84,151.95,111.13,170.1,433.18,Single-ply,SBD,M
Boys,74.84,5,Sean Pyburn,Comanche,69.04,161.03,95.25,161.03,417.3,Single-ply,SBD,M
Boys,74.84,6,Dakota Bomar,Cross Plains,71.4,151.95,74.84,183.7,410.5,Single-ply,SBD,M
Boys,74.84,7,David Hutto,Fort Worth Western Hills,69.76,136.08,88.45,170.1,394.63,Single-ply,SBD,M
Boys,74.84,8,Pritchard Canyon,Castleberry,72.57,158.76,68.04,156.49,383.29,Single-ply,SBD,M
Boys,74.84,9,Cody Kemp,Waco Connally,69.04,133.81,81.65,142.88,358.34,Single-ply,SBD,M
Boys,82.1,10,Keith Skopik,Waco Connally,75.02,136.08,83.91,136.08,356.07,Single-ply,SBD,M
Boys,74.84,11,Adam Boyce,Brady,70.49,113.4,68.04,122.47,303.91,Single-ply,SBD,M
Boys,74.84,12,Jesse Uvalle,Lampasas,68.04,104.33,61.23,136.08,301.64,Single-ply,SBD,M
Boys,74.84,DQ,Josh Williams,Fort Worth Western Hills,71.21,151.95,,,,Single-ply,SBD,M
Boys,74.84,DQ,Chris Perez,Fort Worth North Side,74.84,127.01,,,,Single-ply,SBD,M
Boys,74.84,DQ,Antonio Alba,Fort Worth North Side,71.3,-204.12,,,,Single-ply,SBD,M
Boys,74.84,DQ,Ray Bars,Fort Worth Polytechnic,74.84,-142.88,,,,Single-ply,SBD,M
Boys,74.84,DQ,Michael Fitzhugh,Waco Reicher Catholic,68.95,176.9,,,,Single-ply,SBD,M
Boys,74.84,DQ,Micheal Defiore,Brady,74.84,,,,,Single-ply,SBD,M
Boys,82.1,1,Joaquin Alvarado,Fort Worth Trimble Tech,82.1,210.92,133.81,215.46,560.19,Single-ply,SBD,M
Boys,82.1,2,Salvador Marquez,Comanche,77.56,192.78,108.86,188.24,489.88,Single-ply,SBD,M
Boys,82.1,3,Luis Torres,Fort Worth Trimble Tech,78.93,183.7,95.25,172.37,451.32,Single-ply,SBD,M
Boys,82.1,4,Cody Jandreau,Lampasas,76.66,170.1,115.67,161.03,446.79,Single-ply,SBD,M
Boys,82.1,5,Sean Slater,Fort Worth Western Hills,77.38,170.1,74.84,197.31,442.25,Single-ply,SBD,M
Boys,82.1,6,Thomas Simpson,Glen Rose,78.29,163.29,106.59,170.1,439.98,Single-ply,SBD,M
Boys,82.1,7,Andrew Ary,Brady,80.74,158.76,95.25,185.97,439.98,Single-ply,SBD,M
Boys,82.1,8,Bsmwi Mstibuwi,Fort Worth Wyatt,75.3,147.42,120.2,161.03,428.64,Single-ply,SBD,M
Boys,82.1,9,Zach Hedfelt,Cross Plains,81.37,147.42,92.99,185.97,426.38,Single-ply,SBD,M
Boys,89.81,10,Chris Bell,Waco University,82.33,158.76,92.99,172.37,424.11,Single-ply,SBD,M
Boys,82.1,11,Antonio Nunez,Fort Worth Trimble Tech,76.57,154.22,97.52,163.29,415.04,Single-ply,SBD,M
Boys,82.1,12,Keyotrick Hopkins,Waco University,80.65,181.44,79.38,151.95,412.77,Single-ply,SBD,M
Boys,82.1,13,Victor Conluga,Brady,78.47,140.61,74.84,165.56,381.02,Single-ply,SBD,M
Boys,82.1,14,Nick Madison,Stephenville,81.19,145.15,90.72,136.08,371.95,Single-ply,SBD,M
Boys,82.1,15,Christian Garcia,Fort Worth Western Hills,77.56,147.42,65.77,154.22,367.41,Single-ply,SBD,M
Boys,82.1,16,Jonathan Ochoa,Waco University,79.65,115.67,79.38,117.93,312.98,Single-ply,SBD,M
Boys,82.1,17,Troy Simpson,Fort Worth Polytechnic,75.3,102.06,61.23,136.08,299.37,Single-ply,SBD,M
Boys,82.1,DQ,Gus Burd,Stephenville,82.1,117.93,77.11,145.15,,Single-ply,SBD,M
Boys,82.1,DQ,Clay Brown,Millsap,76.48,-149.69,,,,Single-ply,SBD,M
Boys,82.1,DQ,Shane Johnson,Millsap,79.38,,,,,Single-ply,SBD,M
Boys,82.1,DQ,Patrick Cronin,Granbury,78.93,136.08,,,,Single-ply,SBD,M
Boys,82.1,DQ,Dakota Doucet,Granbury,78.02,117.93,,,,Single-ply,SBD,M
Boys,89.81,1,Roy Rodriguez,Clifton,89.81,260.82,131.54,222.26,614.62,Single-ply,SBD,M
Boys,89.81,2,Caleb Moreau,Fort Worth Western Hills,88.09,224.53,124.74,210.92,560.19,Single-ply,SBD,M
Boys,89.81,3,Justin Campos,Fort Worth North Side,83.46,215.46,113.4,199.58,528.44,Single-ply,SBD,M
Boys,89.81,4,Chris Robinson #5,Waco Connally,89.45,183.7,113.4,199.58,496.68,Single-ply,SBD,M
Boys,89.81,5,Arturo Padilla,Fort Worth North Side,88.9,185.97,102.06,195.04,483.08,Single-ply,SBD,M
Boys,89.81,6,Jimmy Cruz,Stephenville,84.37,147.42,124.74,181.44,453.59,Single-ply,SBD,M
Boys,89.81,7,Andrew Maldonado,Castleberry,87.54,172.37,104.33,176.9,453.59,Single-ply,SBD,M
Boys,89.81,8,Bryan Leonard,Fort Worth Western Hills,86.64,142.88,92.99,188.24,424.11,Single-ply,SBD,M
Boys,99.79,9,Ryan McAdams,Waco Connally,90.04,136.08,97.52,181.44,415.04,Single-ply,SBD,M
Boys,89.81,10,Isreal Torrez,Brady,88.45,145.15,81.65,140.61,367.41,Single-ply,SBD,M
Boys,89.81,11,Marshall Wirtz,Comanche,88.45,124.74,74.84,140.61,340.19,Single-ply,SBD,M
Boys,89.81,12,Joseph Wahling,Lometa,85.91,90.72,65.77,111.13,267.62,Single-ply,SBD,M
Boys,89.81,DQ,Jacoby Miller-Salem,Stephenville,89.81,147.42,102.06,131.54,,Single-ply,SBD,M
Boys,89.81,DQ,James Daniels,Fort Worth Wyatt,82.64,-165.56,,,,Single-ply,SBD,M
Boys,89.81,DQ,Jarvis Keaton,Fort Worth Trimble Tech,83.46,,,,,Single-ply,SBD,M
Boys,99.79,1,Ausin Melvin,Stephenville,93.89,222.26,138.35,226.8,587.4,Single-ply,SBD,M
Boys,99.79,2,Joel Elizondo,Comanche,92.99,226.8,136.08,206.38,569.26,Single-ply,SBD,M
Boys,99.79,3,Austin Thomas,Cross Plains,97.52,238.14,111.13,206.38,555.65,Single-ply,SBD,M
Boys,99.79,4,Jason Poole,Fort Worth Western Hills,92.08,208.65,108.86,226.8,544.31,Single-ply,SBD,M
Boys,99.79,5,Josh Valles,Lampasas,95.71,199.58,113.4,172.37,485.34,Single-ply,SBD,M
Boys,99.79,6,Tommy Sanders,Stephenville,93.89,181.44,102.06,195.04,478.54,Single-ply,SBD,M
Boys,99.79,7,Torian Love,Fort Worth Western Hills,95.25,192.78,102.06,181.44,476.27,Single-ply,SBD,M
Boys,99.79,8,Ryan de la Garza,Waco Connally,96.62,185.97,102.06,174.63,462.66,Single-ply,SBD,M
Boys,99.79,9,Preston Posuk,Cross Plains,94.35,156.49,83.91,204.12,444.52,Single-ply,SBD,M
Boys,99.79,10,Tyler Ferguson,Stephenville,96.62,170.1,97.52,165.56,433.18,Single-ply,SBD,M
Boys,99.79,11,Jordan Boggs,Brady,94.8,172.37,86.18,172.37,430.91,Single-ply,SBD,M
Boys,99.79,12,Tyler Jones,Granbury,95.71,154.22,102.06,142.88,399.16,Single-ply,SBD,M
Boys,99.79,13,Robert Greene,Fort Worth North Side,98.88,167.83,77.11,147.42,392.36,Single-ply,SBD,M
Boys,99.79,14,Max Jones #2,Stephenville,93.89,131.54,68.04,122.47,322.05,Single-ply,SBD,M
Boys,99.79,DQ,Kyle Roberts,Stephenville,99.79,136.08,77.11,140.61,,Single-ply,SBD,M
Boys,99.79,DQ,Paydn Geibler,Stephenville,99.79,,,,,Single-ply,SBD,M
Boys,99.79,DQ,Austin Bradley,Granbury,93.89,149.69,,,,Single-ply,SBD,M
Boys,99.79,DQ,Robert Reeves,Brady,99.79,,,,,Single-ply,SBD,M
Boys,109.77,1,Alex Fritz,Haltom City Haltom,105.87,285.76,183.7,254.01,723.48,Single-ply,SBD,M
Boys,109.77,2,Jimmy Johnson,Glen Rose,100.24,278.96,170.1,249.48,698.53,Single-ply,SBD,M
Boys,109.77,3,Austin Brewer,Clifton,105.87,226.8,142.88,233.6,603.28,Single-ply,SBD,M
Boys,109.77,4,Mike Harris #2,Fort Worth Trimble Tech,102.06,199.58,138.35,219.99,557.92,Single-ply,SBD,M
Boys,109.77,5,Jared Thames,Glen Rose,109.32,199.58,149.69,206.38,555.65,Single-ply,SBD,M
Boys,109.77,6,Andy Gamez,Lampasas,107.14,217.72,113.4,197.31,528.44,Single-ply,SBD,M
Boys,109.77,7,David Cockrell,Lampasas,107.5,204.12,147.42,176.9,528.44,Single-ply,SBD,M
Boys,109.77,8,Jeff King,Cross Plains,106.96,199.58,124.74,174.63,498.95,Single-ply,SBD,M
Boys,109.77,9,Matt Diaz,Stephenville,103.87,181.44,124.74,176.9,483.08,Single-ply,SBD,M
Boys,109.77,10,Kyron Christopher,Fort Worth Trimble Tech,106.59,188.24,102.06,183.7,474,Single-ply,SBD,M
Boys,109.77,11,Gabriel Vega,Waco University,105.32,158.76,68.04,158.76,385.55,Single-ply,SBD,M
Boys,109.77,12,JR Torres,Lometa,106.32,140.61,86.18,158.76,385.55,Single-ply,SBD,M
Boys,109.77,13,Nick Pack,Stephenville,104.33,142.88,104.33,136.08,383.29,Single-ply,SBD,M
Boys,109.77,14,Victor Delgado,Fort Worth Polytechnic,100.61,147.42,88.45,142.88,378.75,Single-ply,SBD,M
Boys,109.77,15,John Estrada,Fort Worth Polytechnic,106.96,115.67,68.04,136.08,319.78,Single-ply,SBD,M
Boys,109.77,DQ,AJ Willingham,Fort Worth Western Hills,106.41,-233.6,,,,Single-ply,SBD,M
Boys,124.74,1,Will Dreyer,Clifton,118.84,308.44,195.04,276.69,780.18,Single-ply,SBD,M
Boys,124.74,2,Damon Hinrichs,Millsap,114.49,294.84,192.78,213.19,700.8,Single-ply,SBD,M
Boys,124.74,3,Mason White,Keller Timber Creek,117.03,281.23,149.69,244.94,675.85,Single-ply,SBD,M
Boys,124.74,4,Dj Vandenberge,Stephenville,116.12,285.76,163.29,204.12,653.17,Single-ply,SBD,M
Boys,124.74,5,Zac Perez,Glen Rose,120.2,272.16,158.76,213.19,644.1,Single-ply,SBD,M
Boys,124.74,6,Ryan Stoker,Breckenridge,122.74,281.23,136.08,217.72,635.03,Single-ply,SBD,M
Boys,124.74,DQ,Joseph Pilgrim,Granbury,113.49,,,,,Single-ply,SBD,M
Boys,124.74,8,Joe King,Breckenridge,118.21,244.94,124.74,226.8,596.47,Single-ply,SBD,M
Boys,124.74,9,Kody Hook,Stephenville,119.75,215.46,138.35,217.72,571.53,Single-ply,SBD,M
Boys,124.74,10,Steve Rivera,Fort Worth Trimble Tech,124.28,195.04,120.2,226.8,542.04,Single-ply,SBD,M
Boys,124.74,11,Nick Bernal,Breckenridge,115.03,213.19,88.45,192.78,494.42,Single-ply,SBD,M
Boys,124.74,12,Julian Salmond,Fort Worth Western Hills,111.4,176.9,111.13,197.31,485.34,Single-ply,SBD,M
Boys,124.74,13,Christian Reyes,Fort Worth Western Hills,120.56,183.7,106.59,185.97,476.27,Single-ply,SBD,M
Boys,124.74,14,Gerardo Rosales,Castleberry,111.58,170.1,129.27,167.83,467.2,Single-ply,SBD,M
Boys,124.74,15,Salas Luis,Castleberry,112.49,179.17,115.67,172.37,467.2,Single-ply,SBD,M
Boys,124.74,16,James Ross,Comanche,123.56,165.56,120.2,158.76,444.52,Single-ply,SBD,M
Boys,124.74,17,Shane Rodriguez,Waco University,112.76,181.44,81.65,154.22,417.3,Single-ply,SBD,M
Boys,124.74,18,Julio Martinez,Castleberry,110.59,156.49,90.72,161.03,408.23,Single-ply,SBD,M
Boys,124.74,19,Aron Law,Fort Worth Trimble Tech,116.12,145.15,102.06,147.42,394.63,Single-ply,SBD,M
Boys,124.74,20,Zac Christian,Comanche,118.66,113.4,90.72,127.01,331.12,Single-ply,SBD,M
Boys,124.74+,21,Avery Larkin,Fort Worth Polytechnic,124.83,86.18,61.23,83.91,231.33,Single-ply,SBD,M
Boys,124.74,DQ,Tyler Brown,Brady,113.13,185.97,-113.4,,,Single-ply,SBD,M
Boys,124.74+,1,Nick Perez,Stephenville,125.19,294.84,183.7,283.5,762.04,Single-ply,SBD,M
Boys,124.74+,2,Josh Aguilar,Waco University,141.61,272.16,158.76,208.65,639.57,Single-ply,SBD,M
Boys,124.74+,3,Jd Brewer,Granbury,132.54,226.8,158.76,204.12,589.67,Single-ply,SBD,M
Boys,124.74+,4,Albert Torres,Castleberry,129.5,215.46,106.59,210.92,532.97,Single-ply,SBD,M
Boys,124.74+,5,Garrett Riggs,Millsap,126.73,208.65,104.33,199.58,512.56,Single-ply,SBD,M
Boys,124.74+,6,Carlos Medellin,Fort Worth Polytechnic,132.63,161.03,102.06,170.1,433.18,Single-ply,SBD,M
Boys,124.74+,DQ,Jordan Kilcrease,Stephenville,136.53,235.87,,,,Single-ply,SBD,M
Boys,124.74+,DQ,Julius Lujan,Waco University,126.92,190.51,108.86,,,Single-ply,SBD,M
