Division,WeightClassKg,Place,Name,Team,BodyweightKg,Best3SquatKg,Best3BenchKg,Best3DeadliftKg,TotalKg,Equipment,Event,Sex
Boys,51.71,1,Grady Rhoden,Alvarado,51.71,102.06,54.43,124.74,281.23,Single-ply,SBD,M
Boys,51.71,2,Ezra Zepeda,Red Oak Life,51.53,95.25,58.97,111.13,265.35,Single-ply,SBD,M
Boys,51.71,3,Danny De Los Santos,Red Oak Life,51.62,72.57,61.23,104.33,238.14,Single-ply,SBD,M
Boys,51.71,4,Brooks Bell,Rio Vista,50.8,90.72,52.16,88.45,231.33,Single-ply,SBD,M
Boys,51.71,5,Alex Stough,Rice,49.9,92.99,49.9,86.18,229.06,Single-ply,SBD,M
Boys,51.71,6,Ivan Navarro,Corsicana Mildred,48.53,70.31,49.9,99.79,219.99,Single-ply,SBD,M
Boys,55.79,1,Ignacio Alvarado,Alvarado,53.52,122.47,68.04,154.22,344.73,Single-ply,SBD,M
Boys,55.79,2,Max Snodgrass,Blooming Grove,55.07,117.93,70.31,151.95,340.19,Single-ply,SBD,M
Boys,55.79,3,Cody Noller,Rio Vista,53.98,113.4,70.31,138.35,322.05,Single-ply,SBD,M
Boys,55.79,4,Robert Oropeza,Rice,54.88,108.86,63.5,133.81,306.17,Single-ply,SBD,M
Boys,55.79,DQ,Quillermo Olvera,Alvarado,53.52,102.06,61.23,,,Single-ply,SBD,M
Boys,59.87,1,Jj Masters,Sunnyvale,57.15,145.15,83.91,154.22,383.29,Single-ply,SBD,M
Boys,59.87,2,Donam Johnson,Hubbard,59.87,142.88,68.04,163.29,374.21,Single-ply,SBD,M
Boys,67.13,3,Colton Monroe,Blooming Grove,59.96,129.27,68.04,176.9,374.21,Single-ply,SBD,M
Boys,59.87,4,Jared Arey,Teague,59.87,145.15,79.38,147.42,371.95,Single-ply,SBD,M
Boys,59.87,5,Nathan Stibbens,Scurry-Rosser,57.15,138.35,70.31,131.54,340.19,Single-ply,SBD,M
Boys,59.87,6,Luis Domingus,Rice,59.87,115.67,72.57,145.15,333.39,Single-ply,SBD,M
Boys,59.87,7,Christian Dominguez,Buffalo,58.6,92.99,56.7,142.88,292.57,Single-ply,SBD,M
Boys,59.87,8,Josh Bruso,Rice,59.15,102.06,61.23,127.01,290.3,Single-ply,SBD,M
Boys,59.87,DQ,Jace Zchiesde,Maypearl,59.87,115.67,,,,Single-ply,SBD,M
Boys,59.87,DQ,Dillion Callaway,Whitney,59.87,97.52,,,,Single-ply,SBD,M
Boys,67.13,1,Blake Lehew,Maypearl,66.68,181.44,117.93,183.7,483.08,Single-ply,SBD,M
Boys,67.13,2,David Calixtor,Teague,63.5,176.9,95.25,170.1,442.25,Single-ply,SBD,M
Boys,67.13,3,Rody Seilheimer,Corsicana Mildred,66.68,158.76,104.33,170.1,433.18,Single-ply,SBD,M
Boys,67.13,4,Bradley Walker,Hubbard,62.6,163.29,90.72,170.1,424.11,Single-ply,SBD,M
Boys,67.13,5,Fernando Zambrano,Teague,66.68,163.29,77.11,174.63,415.04,Single-ply,SBD,M
Boys,67.13,6,Dylan Stough,Rice,64.59,163.29,83.91,158.76,405.97,Single-ply,SBD,M
Boys,67.13,7,Keith Carter,Buffalo,66.68,147.42,92.99,163.29,403.7,Single-ply,SBD,M
Boys,67.13,8,Brazos Sepert,Maypearl,65.77,149.69,72.57,170.1,392.36,Single-ply,SBD,M
Boys,67.13,9,Jesus Lopez,Buffalo,66.59,151.95,74.84,163.29,390.09,Single-ply,SBD,M
Boys,67.13,10,Oscar Bonilla,Corsicana Mildred,65.77,140.61,74.84,163.29,378.75,Single-ply,SBD,M
Boys,74.84,11,Jayson Jordan,Rice,67.36,140.61,83.91,154.22,378.75,Single-ply,SBD,M
Boys,67.13,12,Matt Williams,Rice,65.23,149.69,83.91,142.88,376.48,Single-ply,SBD,M
Boys,67.13,13,Jeremy Ballard,Corsicana Mildred,65.77,138.35,72.57,156.49,367.41,Single-ply,SBD,M
Boys,67.13,14,Mike Clark,Italy,65.32,136.08,74.84,133.81,344.73,Single-ply,SBD,M
Boys,74.84,15,Kolten McCool,Malakoff Cross Roads,67.22,113.4,83.91,131.54,328.85,Single-ply,SBD,M
Boys,67.13,16,Dalton Wassinger,Blooming Grove,67.13,127.01,72.57,127.01,326.59,Single-ply,SBD,M
Boys,67.13,17,Ben Nicholson,Blooming Grove,61.14,129.27,65.77,127.01,322.05,Single-ply,SBD,M
Boys,67.13,18,Osvaldo Solis,Rice,63.78,136.08,70.31,113.4,319.78,Single-ply,SBD,M
Boys,67.13,19,Brandon Campbell,Teague,66.68,108.86,68.04,142.88,319.78,Single-ply,SBD,M
Boys,67.13,20,Blake Whisenant,Wortham,60.33,97.52,77.11,142.88,317.51,Single-ply,SBD,M
Boys,67.13,21,Nick Scocchio,Whitney,60.33,124.74,63.5,124.74,312.98,Single-ply,SBD,M
Boys,67.13,22,Chad Sherrell,Malakoff Cross Roads,65.59,99.79,58.97,113.4,272.16,Single-ply,SBD,M
Boys,67.13,23,Shawn Homes,Malakoff Cross Roads,65.68,83.91,52.16,111.13,247.21,Single-ply,SBD,M
Boys,67.13,DQ,J. Haley #2,Rio Vista,65.77,,,,,Single-ply,SBD,M
Boys,67.13,DQ,Derek Bonner,Whitney,63.96,151.95,,,,Single-ply,SBD,M
Boys,67.13,DQ,Ty Justice,Whitney,66.68,129.27,,,,Single-ply,SBD,M
Boys,67.13,DQ,Trevor Morgan,Red Oak Life,61.14,99.79,,,,Single-ply,SBD,M
Boys,67.13,DQ,Bode Shore,Red Oak Life,66.59,99.79,72.57,,,Single-ply,SBD,M
Boys,67.13,DQ,Travis Whiteside,Blooming Grove,65.32,,,,,Single-ply,SBD,M
Boys,67.13,DQ,J. Rivera,Alvarado,65.77,,,,,Single-ply,SBD,M
Boys,74.84,1,Rylee Littrell,Scurry-Rosser,73.94,176.9,106.59,163.29,446.79,Single-ply,SBD,M
Boys,74.84,2,Calvin Young,Buffalo,71.58,158.76,83.91,190.51,433.18,Single-ply,SBD,M
Boys,74.84,3,Nathan Cornett,Alvarado,74.84,151.95,102.06,172.37,426.38,Single-ply,SBD,M
Boys,74.84,4,Coy Jorden,Teague,69.85,147.42,97.52,170.1,415.04,Single-ply,SBD,M
Boys,74.84,5,Brandon Fortune,Alvarado,70.31,136.08,83.91,192.78,412.77,Single-ply,SBD,M
Boys,74.84,6,Will Moss,Sunnyvale,73.48,147.42,97.52,165.56,410.5,Single-ply,SBD,M
Boys,74.84,7,Zach Starkey,Kerens,74.21,154.22,88.45,161.03,403.7,Single-ply,SBD,M
Boys,74.84,8,Brandon Souder,Italy,72.12,142.88,95.25,163.29,401.43,Single-ply,SBD,M
Boys,74.84,9,Chase Hamilton,Italy,71.67,142.88,97.52,158.76,399.16,Single-ply,SBD,M
Boys,74.84,10,Jalcolby Cox,Scurry-Rosser,71.21,138.35,83.91,167.83,390.09,Single-ply,SBD,M
Boys,74.84,11,Jamal Lewis,Italy,72.57,136.08,90.72,158.76,385.55,Single-ply,SBD,M
Boys,74.84,12,Chance Erwin,Rio Vista,73.94,142.88,70.31,142.88,356.07,Single-ply,SBD,M
Boys,74.84,13,Shane Sibley,Red Oak Life,68.58,129.27,79.38,136.08,344.73,Single-ply,SBD,M
Boys,74.84,14,Pat Wallace,Corsicana Mildred,70.31,124.74,74.84,142.88,342.46,Single-ply,SBD,M
Boys,74.84,15,Arron Ambrose,Alvarado,74.39,106.59,81.65,149.69,337.93,Single-ply,SBD,M
Boys,74.84,16,Hayden Walraven,Alvarado,74.84,124.74,72.57,136.08,333.39,Single-ply,SBD,M
Boys,74.84,17,Dustin Todd,Scurry-Rosser,71.21,129.27,61.23,133.81,324.32,Single-ply,SBD,M
Boys,74.84,18,Haven Proulx,Wortham,71.67,95.25,61.23,156.49,312.98,Single-ply,SBD,M
Boys,74.84,19,Robert Onderdonck,Alvarado,68.58,90.72,74.84,108.86,274.42,Single-ply,SBD,M
Boys,74.84,DQ,Shawn Foulks,Red Oak Life,72.39,156.49,97.52,,,Single-ply,SBD,M
Boys,82.1,1,Caide Southard,Corsicana Mildred,80.74,181.44,124.74,201.85,508.02,Single-ply,SBD,M
Boys,82.1,2,Ryan Lynch,Teague,80.29,181.44,106.59,199.58,487.61,Single-ply,SBD,M
Boys,82.1,3,Tyler Garrison,Scurry-Rosser,76.66,170.1,92.99,181.44,444.52,Single-ply,SBD,M
Boys,89.81,4,Brock McFarland,Blooming Grove,82.24,172.37,77.11,181.44,430.91,Single-ply,SBD,M
Boys,82.1,5,Thomas Tilford,Scurry-Rosser,78.47,172.37,99.79,154.22,426.38,Single-ply,SBD,M
Boys,82.1,6,Ryan Welch,Whitney,78.93,149.69,97.52,163.29,410.5,Single-ply,SBD,M
Boys,82.1,7,J. Thomas,Whitney,76.2,147.42,102.06,158.76,408.23,Single-ply,SBD,M
Boys,82.1,8,John Day,Scurry-Rosser,79.83,151.95,86.18,142.88,381.02,Single-ply,SBD,M
Boys,82.1,9,Clint LaCour,Scurry-Rosser,81.19,133.81,90.72,154.22,378.75,Single-ply,SBD,M
Boys,82.1,10,Riley Sanchez,Alvarado,80.74,120.2,72.57,113.4,306.17,Single-ply,SBD,M
Boys,89.81,11,Mazen Subuh,Red Oak Life,82.19,81.65,61.23,95.25,238.14,Single-ply,SBD,M
Boys,82.1,12,Matt Bourquin,Rio Vista,78.93,54.43,45.36,72.57,172.37,Single-ply,SBD,M
Boys,82.1,DQ,Paul Harris,Italy,82.1,115.67,,,,Single-ply,SBD,M
Boys,89.81,1,Cj Johnson,Alvarado,87.09,192.78,129.27,185.97,508.02,Single-ply,SBD,M
Boys,89.81,2,Kenny Adams,Alvarado,89.27,181.44,120.2,204.12,505.76,Single-ply,SBD,M
Boys,89.81,3,Wayne Onderdonck,Alvarado,87.09,165.56,124.74,208.65,498.95,Single-ply,SBD,M
Boys,89.81,4,Josh Wooten,Kerens,86.55,188.24,108.86,199.58,496.68,Single-ply,SBD,M
Boys,89.81,5,Jody Bernal,Rice,84.01,170.1,120.2,199.58,489.88,Single-ply,SBD,M
Boys,89.81,6,Ben Torres,Rice,86.82,201.85,113.4,172.37,487.61,Single-ply,SBD,M
Boys,89.81,7,Ty Tunstall,Teague,88,181.44,104.33,188.24,474,Single-ply,SBD,M
Boys,89.81,8,Josh Freeman,Hubbard,84.73,183.7,95.25,183.7,462.66,Single-ply,SBD,M
Boys,89.81,9,Rustin Feaster,Blooming Grove,88.9,181.44,88.45,179.17,449.06,Single-ply,SBD,M
Boys,89.81,10,Ivan Rivas,Buffalo,88.54,174.63,111.13,158.76,444.52,Single-ply,SBD,M
Boys,89.81,11,Michael Kline,Kerens,85.91,176.9,86.18,176.9,439.98,Single-ply,SBD,M
Boys,89.81,12,Dj Young,Buffalo,83.69,163.29,92.99,170.1,426.38,Single-ply,SBD,M
Boys,89.81,13,Garrett Trussell,Malakoff Cross Roads,83.91,140.61,104.33,181.44,426.38,Single-ply,SBD,M
Boys,89.81,14,Alex Gentry,Alvarado,82.55,154.22,102.06,163.29,419.57,Single-ply,SBD,M
Boys,89.81,15,Averil Royal,Red Oak Life,86.73,167.83,92.99,158.76,419.57,Single-ply,SBD,M
Boys,89.81,16,Hayden Long,Sunnyvale,82.55,149.69,86.18,181.44,417.3,Single-ply,SBD,M
Boys,89.81,17,Justin Smith #21,Rice,88.09,158.76,81.65,172.37,412.77,Single-ply,SBD,M
Boys,89.81,18,Rowdy Goff,Alvarado,85.73,120.2,108.86,158.76,387.82,Single-ply,SBD,M
Boys,89.81,19,Ricardo Martinez,Alvarado,86.18,113.4,90.72,124.74,328.85,Single-ply,SBD,M
Boys,89.81,20,Dancey McCool,Malakoff Cross Roads,88.99,113.4,83.91,129.27,326.59,Single-ply,SBD,M
Boys,89.81,21,Daniel Perez,Wortham,85.73,106.59,65.77,124.74,297.1,Single-ply,SBD,M
Boys,89.81,22,Chris Bernal,Rice,87.82,108.86,63.5,113.4,285.76,Single-ply,SBD,M
Boys,89.81,DQ,Jacob Rose,Milford,85.73,,,,,Single-ply,SBD,M
Boys,89.81,DQ,Dj Woods,Kerens,83.37,244.94,,,,Single-ply,SBD,M
Boys,89.81,DQ,Garrett Yates,Scurry-Rosser,86.18,115.67,,,,Single-ply,SBD,M
Boys,89.81,DQ,Quintin Weaver,Corsicana Mildred,86.64,138.35,,,,Single-ply,SBD,M
Boys,99.79,1,Kelton Henderson,Teague,95.71,226.8,142.88,222.26,591.94,Single-ply,SBD,M
Boys,99.79,2,Aj Castillo,Alvarado,98.88,204.12,129.27,208.65,542.04,Single-ply,SBD,M
Boys,99.79,3,Hayden Houpt,Whitney,99.34,204.12,120.2,215.46,539.77,Single-ply,SBD,M
Boys,99.79,4,Greg Ormiston,Maypearl,99.79,222.26,108.86,199.58,530.7,Single-ply,SBD,M
Boys,99.79,5,Jonathan Perez,Scurry-Rosser,98.88,206.38,102.06,201.85,510.29,Single-ply,SBD,M
Boys,99.79,6,Joshaua Ashlock,Maypearl,97.07,181.44,99.79,222.26,503.49,Single-ply,SBD,M
Boys,99.79,7,Omar Estrada,Italy,92.53,185.97,113.4,199.58,498.95,Single-ply,SBD,M
Boys,99.79,8,Chris Perez,Wortham,97.98,183.7,102.06,206.38,492.15,Single-ply,SBD,M
Boys,99.79,9,Leonard Smith,Wortham,90.26,190.51,95.25,204.12,489.88,Single-ply,SBD,M
Boys,99.79,10,Josh Carrillo,Buffalo,97.25,190.51,97.52,176.9,464.93,Single-ply,SBD,M
Boys,99.79,11,Tracy Hightower,Red Oak Life,96.16,151.95,102.06,163.29,417.3,Single-ply,SBD,M
Boys,99.79,12,Dustin Simpson,Hubbard,98.88,163.29,102.06,149.69,415.04,Single-ply,SBD,M
Boys,99.79,13,Art Kelley,Whitney,97.52,151.95,83.91,165.56,401.43,Single-ply,SBD,M
Boys,99.79,14,David Allen,Scurry-Rosser,99.79,161.03,99.79,136.08,396.89,Single-ply,SBD,M
Boys,99.79,15,Jesus Franco,Alvarado,98.43,136.08,90.72,163.29,390.09,Single-ply,SBD,M
Boys,99.79,16,Andrew Serener,Alvarado,90.72,102.06,90.72,170.1,362.87,Single-ply,SBD,M
Boys,99.79,17,Ace Rurak,Rio Vista,92.53,140.61,90.72,124.74,356.07,Single-ply,SBD,M
Boys,99.79,18,Hunter Norwood,Malakoff Cross Roads,92.71,83.91,83.91,136.08,303.91,Single-ply,SBD,M
Boys,99.79,19,Billy Stephens,Rice,90.54,108.86,72.57,113.4,294.84,Single-ply,SBD,M
Boys,99.79,DQ,Ragan Henderson,Rice,95.89,206.38,,,,Single-ply,SBD,M
Boys,109.77,1,Johnny Johnson,Teague,106.59,210.92,120.2,213.19,544.31,Single-ply,SBD,M
Boys,109.77,2,Danny Hanna,Corsicana Mildred,102.97,167.83,97.52,172.37,437.72,Single-ply,SBD,M
Boys,109.77,3,Dustin Raxter,Blooming Grove,105.23,158.76,81.65,176.9,417.3,Single-ply,SBD,M
Boys,109.77,4,Dillan Span,Alvarado,105.23,99.79,77.11,136.08,312.98,Single-ply,SBD,M
Boys,109.77,5,Cyle Johnson,Alvarado,102.06,95.25,68.04,113.4,276.69,Single-ply,SBD,M
Boys,109.77,DQ,Raffael Robles,Sunnyvale,102.97,188.24,,,,Single-ply,SBD,M
Boys,109.77,DQ,Adam Sherbert,Wortham,104.78,113.4,,,,Single-ply,SBD,M
Boys,124.74,1,Roddy Williams,Hubbard,118.39,192.78,122.47,217.72,532.97,Single-ply,SBD,M
Boys,124.74,2,Alex Montano,Buffalo,112.49,206.38,120.2,204.12,530.7,Single-ply,SBD,M
Boys,124.74,3,Kyle Burgess,Alvarado,114.67,183.7,117.93,215.46,517.1,Single-ply,SBD,M
Boys,124.74,4,Alex Ellis,Teague,113.4,204.12,111.13,192.78,508.02,Single-ply,SBD,M
Boys,124.74,5,Chris Hobbs,Kerens,115.67,201.85,113.4,179.17,494.42,Single-ply,SBD,M
Boys,124.74,6,Jessie Wilson,Whitney,119.84,181.44,113.4,185.97,480.81,Single-ply,SBD,M
Boys,124.74,7,Seth White,Alvarado,117.48,181.44,104.33,181.44,467.2,Single-ply,SBD,M
Boys,124.74,8,Shawn Hatraubuchler,Malakoff Cross Roads,111.86,149.69,90.72,170.1,410.5,Single-ply,SBD,M
Boys,124.74,9,Cameron Lewis,Wortham,124.28,145.15,90.72,154.22,390.09,Single-ply,SBD,M
Boys,124.74,10,Jimmy Thomas,Alvarado,113.04,154.22,86.18,147.42,387.82,Single-ply,SBD,M
Boys,124.74,11,Scott Sykora,Wortham,111.58,136.08,90.72,156.49,383.29,Single-ply,SBD,M
Boys,124.74,12,Garrett Lane,Blooming Grove,115.76,129.27,79.38,138.35,347,Single-ply,SBD,M
Boys,124.74,DQ,Thomas Finigmow,Corsicana Mildred,110.68,,,,,Single-ply,SBD,M
Boys,124.74,DQ,Tanner Reynolds,Corsicana Mildred,110.68,170.1,102.06,,,Single-ply,SBD,M
Boys,124.74,DQ,Tj Talashek,Sunnyvale,122.47,158.76,122.47,,,Single-ply,SBD,M
Boys,124.74,DQ,Ej Madrigal,Red Oak Life,116.85,165.56,,,,Single-ply,SBD,M
Boys,124.74+,1,Shawn McKinney,Hubbard,168.28,272.16,167.83,249.48,689.46,Single-ply,SBD,M
Boys,124.74+,2,Tyler Heard,Scurry-Rosser,131.09,215.46,131.54,181.44,528.44,Single-ply,SBD,M
Boys,124.74+,3,Alan Singleton,Milford,172.37,197.31,136.08,183.7,517.1,Single-ply,SBD,M
Boys,124.74+,4,Blake Spears,Teague,137.44,188.24,102.06,188.24,478.54,Single-ply,SBD,M
Boys,124.74+,5,Ethan Still,Kerens,174.18,192.78,102.06,181.44,476.27,Single-ply,SBD,M
Boys,124.74+,6,Hank Seabolt,Italy,131.54,181.44,113.4,158.76,453.59,Single-ply,SBD,M
Boys,124.74+,7,David Romero,Whitney,139.25,181.44,102.06,158.76,442.25,Single-ply,SBD,M
Boys,124.74+,DQ,Tanner Finley,Whitney,141.97,188.24,,,,Single-ply,SBD,M
