Name,WeightClassKg,Division,Sex,Best3SquatKg,Best3BenchKg,Best3DeadliftKg,TotalKg,Event,Equipment,Place
Rosemary Carter,,Open,F,112.5,42.5,142.5,297.5,SBD,Single-ply,1
Peg VanAlstyne,,Open,F,100,52.5,140,292.5,SBD,Single-ply,2
Shelia Shepard,,Open,F,90,45,122.5,257.5,SBD,Single-ply,3
Amy Hille,,Open,F,127.5,70,167.5,365,SBD,Single-ply,4
Gladys Hanser,,Open,F,67.5,37.5,92.5,197.5,SBD,Single-ply,5
Elinda Smith,,Open,F,62.5,30,92.5,185,SBD,Single-ply,6
Nickie Myers,,Open,F,62.5,32.5,77.5,172.5,SBD,Single-ply,7
Rusty Adams,52,Novice,M,107.5,60,117.5,285,SBD,Single-ply,1
Keith Switzer,52,Novice,M,102.5,67.5,112.5,282.5,SBD,Single-ply,2
Ed Friloux,52,Novice,M,92.5,52.5,97.5,242.5,SBD,Single-ply,3
Joe Bledsoe,56,Novice,M,140,77.5,165,382.5,SBD,Single-ply,1
Carlos Toro,56,Novice,M,110,70,155,335,SBD,Single-ply,2
Brian Landry,60,Novice,M,137.5,95,155,387.5,SBD,Single-ply,1
Jay Ryan,60,Novice,M,97.5,75,117.5,290,SBD,Single-ply,2
Jeff Haynes,67.5,Novice,M,187.5,112.5,227.5,527.5,SBD,Single-ply,1
Joe DeSito,67.5,Novice,M,195,117.5,202.5,515,SBD,Single-ply,2
David Meyers,67.5,Novice,M,162.5,112.5,185,460,SBD,Single-ply,3
Todd Delk,75,Novice,M,205,122.5,207.5,535,SBD,Single-ply,1
Dennis McGowan,75,Novice,M,190,110,215,515,SBD,Single-ply,2
Mike Tindol,75,Novice,M,190,120,200,510,SBD,Single-ply,3
Greg D'Antoni,75,Novice,M,170,112.5,207.5,490,SBD,Single-ply,4
Pat Bertagnolli,75,Novice,M,175,120,182.5,477.5,SBD,Single-ply,5
Davis Shavers,75,Novice,M,142.5,,,,SBD,Single-ply,DQ
Todd Martin,75,Novice,M,172.5,,,,SBD,Single-ply,DQ
Wallace Johnson,82.5,Novice,M,227.5,135,247.5,610,SBD,Single-ply,1
Paul Kernan,82.5,Novice,M,220,127.5,247.5,595,SBD,Single-ply,2
Josuha James,82.5,Novice,M,250,112.5,230,592.5,SBD,Single-ply,3
Mike Rizzi,82.5,Novice,M,230,125,230,585,SBD,Single-ply,4
John Jones,82.5,Novice,M,197.5,107.5,235,540,SBD,Single-ply,5
Edward Lee,82.5,Novice,M,110,130,192.5,432.5,SBD,Single-ply,6
Harold Iles,82.5,Novice,M,137.5,107.5,182.5,427.5,SBD,Single-ply,7
Jason Borries,82.5,Novice,M,207.5,,,,SBD,Single-ply,DQ
W. Holland,90,Novice,M,170,125,220,515,SBD,Single-ply,1
Pat Kennedy,90,Novice,M,197.5,107.5,200,505,SBD,Single-ply,2
Dan Rykard,90,Novice,M,180,112.5,195,487.5,SBD,Single-ply,3
Alvin Cantu,90,Novice,M,165,125,195,485,SBD,Single-ply,4
Bob Blankline,90,Novice,M,,,,,SBD,Single-ply,DQ
Grady Fountain,90,Novice,M,250,142.5,,,SBD,Single-ply,DQ
Dan Macri,100,Novice,M,250,160,245,655,SBD,Single-ply,1
Wyatt Sharp,100,Novice,M,220,132.5,242.5,595,SBD,Single-ply,2
Ron Harrell,100,Novice,M,182.5,137.5,227.5,547.5,SBD,Single-ply,3
Mike Gambell,100,Novice,M,145,115,192.5,452.5,SBD,Single-ply,4
Bob Bates,110,Novice,M,205,125,227.5,557.5,SBD,Single-ply,1
Jerry Streetman,110,Novice,M,182.5,105,215,502.5,SBD,Single-ply,2
James Lauro,110,Novice,M,175,117.5,200,492.5,SBD,Single-ply,3
Scott Curington,125+,Novice,M,227.5,127.5,205,560,SBD,Single-ply,1
Junior Bergeron,52,Open,M,125,65,155,345,SBD,Single-ply,1
Chris Warnick,56,Open,M,162.5,107.5,197.5,467.5,SBD,Single-ply,1
Mike Blaize,60,Open,M,140,75,162.5,377.5,SBD,Single-ply,1
Brian Broussard,67.5,Open,M,227.5,135,220,582.5,SBD,Single-ply,1
Nickey Martino,67.5,Open,M,190,112,190,492,SBD,Single-ply,2
Jimbo Parker,75,Open,M,230,150,265,645,SBD,Single-ply,1
Randy Sanzone,75,Open,M,222.5,175,235,632.5,SBD,Single-ply,2
Chris George,75,Open,M,182.5,115,240,537.5,SBD,Single-ply,3
Brent Maggio,75,Open,M,185,137.5,212.5,535,SBD,Single-ply,4
Chris Scheuchl,82.5,Open,M,260,142.5,272.5,675,SBD,Single-ply,1
Davis Post,90,Open,M,265,152.5,307.5,725,SBD,Single-ply,1
Joey Adams,90,Open,M,270,162.5,280,712.5,SBD,Single-ply,2
Chad DeRousselle,90,Open,M,277.5,147.5,282.5,707.5,SBD,Single-ply,3
Bob Hafner,90,Open,M,207.5,107.5,242.5,557.5,SBD,Single-ply,4
Vinson Keyhea,90,Open,M,290,,,,SBD,Single-ply,DQ
Don Beter,100,Open,M,327.5,190,312.5,830,SBD,Single-ply,1
Arnie Oakes,100,Open,M,285,170,287.5,742.5,SBD,Single-ply,2
D. Clattenburg,100,Open,M,265,162.5,277.5,705,SBD,Single-ply,3
Bill Clattenburg,100,Open,M,282.5,147.5,272.5,702.5,SBD,Single-ply,4
Mark Turner,100,Open,M,260,147.5,255,662.5,SBD,Single-ply,5
Mike Dodson,110,Open,M,245,157.5,282.5,685,SBD,Single-ply,1
Roy Cefalu,110,Open,M,220,150,245,615,SBD,Single-ply,2
Lanny Shepard,125,Open,M,307.5,185,310,802.5,SBD,Single-ply,1
Terry Buford,125,Open,M,245,132.5,245,622.5,SBD,Single-ply,2
Randall Lolley,125+,Open,M,197.5,110,205,512.5,SBD,Single-ply,1
