Division,WeightClassKg,Place,Name,Team,BodyweightKg,Best3SquatKg,Best3BenchKg,Best3DeadliftKg,TotalKg,Equipment,Event,Sex
Boys,51.71,1,John Clerihew,Olney,51.07,136.08,72.57,142.88,351.53,Single-ply,SBD,M
Boys,51.71,2,Blake Dulaney,Bangs,51.53,124.74,68.04,115.67,308.44,Single-ply,SBD,M
Boys,51.71,3,Jesse Berry,Crawford,46.36,111.13,54.43,117.93,283.5,Single-ply,SBD,M
Boys,51.71,4,Alvin Cole,Brady,51.71,106.59,58.97,117.93,283.5,Single-ply,SBD,M
Boys,51.71,5,Jamie Smith,Comanche,46.54,111.13,61.23,108.86,281.23,Single-ply,SBD,M
Boys,51.71,6,Michael Ramsey,De Leon,46.99,95.25,52.16,124.74,272.16,Single-ply,SBD,M
Boys,51.71,7,Trent Bell,Aubrey,51.35,90.72,54.43,102.06,247.21,Single-ply,SBD,M
Boys,51.71,8,Thomas Ramsey,Petrolia,51.71,99.79,43.09,90.72,233.6,Single-ply,SBD,M
Boys,51.71,9,Luis Berumen,Strawn,47.63,90.72,43.09,97.52,231.33,Single-ply,SBD,M
Boys,51.71,10,Owen Allison,Strawn,43.09,65.77,38.56,83.91,188.24,Single-ply,SBD,M
Boys,51.71,DQ,Marty Berumen,Strawn,44.45,,,,,Single-ply,SBD,M
Boys,51.71,DQ,Angel Berumen,Strawn,47.85,,,,,Single-ply,SBD,M
Boys,51.71,DQ,Dustin Fetner,Venus,51.71,,,,,Single-ply,SBD,M
Boys,51.71,DQ,Louis Molinar,Aubrey,51.71,,,,,Single-ply,SBD,M
Boys,51.71,DQ,Austin Caldwell,Callisburg,51.62,90.72,,,,Single-ply,SBD,M
Boys,59.87,1,Vincent Torrefranco,Sadler S & S Cons,55.97,161.03,83.91,183.7,428.64,Single-ply,SBD,M
Boys,55.79,2,Kenneth Mitchell #2,Bangs,55.79,167.83,86.18,170.1,424.11,Single-ply,SBD,M
Boys,55.79,3,Larry Cribbs,Olney,55.79,170.1,86.18,161.03,417.3,Single-ply,SBD,M
Boys,55.79,4,Edgar Macias,Lingleville,55.7,147.42,81.65,170.1,399.16,Single-ply,SBD,M
Boys,55.79,5,Charlie Radford,Aubrey,55.79,111.13,65.77,145.15,322.05,Single-ply,SBD,M
Boys,55.79,6,Dakkota Murry,Brady,55.79,138.35,47.63,133.81,319.78,Single-ply,SBD,M
Boys,55.79,7,David Valdez,Brady,55.79,113.4,68.04,136.08,317.51,Single-ply,SBD,M
Boys,55.79,8,Patrick Gonzalez,Hillsboro,55.16,102.06,56.7,127.01,285.76,Single-ply,SBD,M
Boys,55.79,9,Cole Abbott,Strawn,54.88,90.72,56.7,127.01,274.42,Single-ply,SBD,M
Boys,55.79,DQ,Randel Sirils,Wichita Falls City View,55.79,,,,,Single-ply,SBD,M
Boys,55.79,DQ,DJ McKinney,San Saba,55.79,,,,,Single-ply,SBD,M
Boys,55.79,DQ,Jake Anderson,Sadler S & S Cons,55.79,,,,,Single-ply,SBD,M
Boys,55.79,DQ,Josiah Cansler,Perrin-Whitt,55.79,,,,,Single-ply,SBD,M
Boys,55.79,DQ,Cameron Senters,Burkburnett,55.16,142.88,,,,Single-ply,SBD,M
Boys,55.79,DQ,Austin Fortney,Sidney,52.16,,,,,Single-ply,SBD,M
Boys,59.87,1,Walt Harden,Peaster,59.33,170.1,102.06,170.1,442.25,Single-ply,SBD,M
Boys,59.87,2,Brey Sweek,Santo,59.78,183.7,83.91,163.29,430.91,Single-ply,SBD,M
Boys,67.13,3,Jeremy Croney,Sadler S & S Cons,60.06,161.03,81.65,174.63,417.3,Single-ply,SBD,M
Boys,59.87,4,Rene Rivas,Venus,58.97,154.22,83.91,158.76,396.89,Single-ply,SBD,M
Boys,59.87,5,Luis Sandoval,Glen Rose,58.69,151.95,83.91,154.22,390.09,Single-ply,SBD,M
Boys,59.87,6,Zane Schrader,Olney,59.33,156.49,86.18,147.42,390.09,Single-ply,SBD,M
Boys,59.87,7,Justin McDonald,Burkburnett,58.51,167.83,72.57,142.88,383.29,Single-ply,SBD,M
Boys,59.87,8,Issiac Moreno,Breckenridge,58.79,127.01,86.18,136.08,349.27,Single-ply,SBD,M
Boys,59.87,9,Will Morath,Petrolia,59.87,127.01,58.97,124.74,310.71,Single-ply,SBD,M
Boys,59.87,10,Bobby Wells,Strawn,58.97,102.06,65.77,108.86,276.69,Single-ply,SBD,M
Boys,59.87,DQ,Ragen Brewer,Wichita Falls City View,59.87,,,,,Single-ply,SBD,M
Boys,59.87,DQ,Shawn Herndon,Bridgeport,59.87,,,,,Single-ply,SBD,M
Boys,59.87,DQ,Dylan Foreman,Callisburg,59.87,,,,,Single-ply,SBD,M
Boys,59.87,DQ,Eymarth Rodriguez,Aubrey,59.87,,,,,Single-ply,SBD,M
Boys,59.87,DQ,Ruby Ramirez,Hamilton,58.97,151.95,86.18,,,Single-ply,SBD,M
Boys,59.87,DQ,Dakota White,Mineral Wells,59.6,140.61,,,,Single-ply,SBD,M
Boys,74.84,1,Isaac Brown,Bangs,67.31,226.8,97.52,233.6,557.92,Single-ply,SBD,M
Boys,67.13,2,Allen Almgren,Bangs,66.13,242.67,99.79,204.12,546.58,Single-ply,SBD,M
Boys,67.13,3,Alex Cervantes,San Saba,67.04,199.58,104.33,213.19,517.1,Single-ply,SBD,M
Boys,67.13,4,Levi Bamber,Dublin,64.32,197.31,124.74,181.44,503.49,Single-ply,SBD,M
Boys,67.13,5,Blaine Dunlap,Bonham,66.04,183.7,99.79,195.04,478.54,Single-ply,SBD,M
Boys,67.13,6,Luke Hartman,Iowa Park,65.68,188.24,117.93,167.83,474,Single-ply,SBD,M
Boys,67.13,7,Scott Belland,Santo,67.13,192.78,104.33,172.37,469.47,Single-ply,SBD,M
Boys,74.84,8,Brandon Jones,Decatur,67.22,176.9,90.72,199.58,467.2,Single-ply,SBD,M
Boys,67.13,9,Taylor Ochs,Peaster,66.41,197.31,104.33,163.29,464.93,Single-ply,SBD,M
Boys,67.13,10,Blake Lehew,Maypearl,67.04,179.17,111.13,154.22,444.52,Single-ply,SBD,M
Boys,67.13,11,Alec Apple,Rising Star,66.41,149.69,102.06,188.24,439.98,Single-ply,SBD,M
Boys,67.13,12,Zeph Valdez,Brady,62.32,163.29,99.79,158.76,421.84,Single-ply,SBD,M
Boys,67.13,13,Colton Hill,Rising Star,64.41,158.76,77.11,185.97,421.84,Single-ply,SBD,M
Boys,67.13,14,Kat Leal,Rising Star,66.22,158.76,92.99,170.1,421.84,Single-ply,SBD,M
Boys,67.13,15,Mitchell Erp,Aubrey,66.32,156.49,92.99,172.37,421.84,Single-ply,SBD,M
Boys,67.13,16,Randy Tucker,Perrin-Whitt,66.9,154.22,88.45,165.56,408.23,Single-ply,SBD,M
Boys,67.13,17,Shawn Fortney,Sidney,67.04,138.35,92.99,167.83,399.16,Single-ply,SBD,M
Boys,67.13,18,Billy Brock,Petrolia,65.14,108.86,72.57,147.42,328.85,Single-ply,SBD,M
Boys,67.13,19,Daniel Sánchez,Rising Star,61.23,108.86,72.57,136.08,317.51,Single-ply,SBD,M
Boys,67.13,20,Bo Crowder,Coleman,60.33,115.67,70.31,117.93,303.91,Single-ply,SBD,M
Boys,67.13,21,Allen Breaux,Santo,62.78,122.47,58.97,122.47,303.91,Single-ply,SBD,M
Boys,67.13,22,Brad Maxwell,Petrolia,62.41,106.59,58.97,131.54,297.1,Single-ply,SBD,M
Boys,67.13,23,Jesus Monriquez,Fort Worth South Hills,66.68,72.57,72.57,136.08,281.23,Single-ply,SBD,M
Boys,67.13,DQ,Kaleb Nowlin,De Leon,65.77,,,,,Single-ply,SBD,M
Boys,67.13,DQ,Matthew Maley,Crawford,66.77,,,,,Single-ply,SBD,M
Boys,67.13,DQ,Dylan Hawkins,Coleman,67.13,,,,,Single-ply,SBD,M
Boys,67.13,DQ,Alex Garcia,Bridgeport,67.13,,,,,Single-ply,SBD,M
Boys,67.13,DQ,Jared Clark,Burleson,67.13,,,,,Single-ply,SBD,M
Boys,67.13,DQ,Sean Brown #4,Bridgeport,67.13,,,,,Single-ply,SBD,M
Boys,67.13,DQ,Luke Plummer,Bridgeport,67.13,,,,,Single-ply,SBD,M
Boys,67.13,DQ,Allan Hale,San Saba,67.13,,,,,Single-ply,SBD,M
Boys,67.13,DQ,Colton A Harris,Santo,67.13,,,,,Single-ply,SBD,M
Boys,67.13,DQ,Brooks Jones,Coleman,62.6,,,,,Single-ply,SBD,M
Boys,67.13,DQ,David Hernandez,Brady,65.68,149.69,,,,Single-ply,SBD,M
Boys,74.84,1,Dustin Dorris,Crawford,69.58,258.55,117.93,197.31,573.79,Single-ply,SBD,M
Boys,82.1,2,Carlos Villagran,Olney,75.02,219.99,142.88,192.78,555.65,Single-ply,SBD,M
Boys,74.84,3,Jacob Carson,Bangs,74.75,208.65,106.59,219.99,535.24,Single-ply,SBD,M
Boys,74.84,4,Hunter Fritscher,Crawford,71.94,217.72,111.13,199.58,528.44,Single-ply,SBD,M
Boys,74.84,5,Josh Rodriguez,Stephenville,73.84,199.58,113.4,215.46,528.44,Single-ply,SBD,M
Boys,74.84,6,Isaiah Terry,Burkburnett,74.48,199.58,106.59,215.46,521.63,Single-ply,SBD,M
Boys,74.84,7,Jose Ramirez,Brady,73.3,195.04,102.06,219.99,517.1,Single-ply,SBD,M
Boys,82.1,8,Julio Rodriguez,Venus,74.93,192.78,136.08,185.97,514.83,Single-ply,SBD,M
Boys,82.1,9,Norman James,Wichita Falls City View,75.02,195.04,129.27,174.63,498.95,Single-ply,SBD,M
Boys,74.84,10,Garrison Dean,Crawford,70.22,181.44,113.4,197.31,492.15,Single-ply,SBD,M
Boys,74.84,11,Dru Hull,Sadler S & S Cons,74.66,188.24,108.86,183.7,480.81,Single-ply,SBD,M
Boys,74.84,12,Justin Smith #20,Petrolia,70.85,188.24,108.86,181.44,478.54,Single-ply,SBD,M
Boys,74.84,13,Alex Rositas,Aubrey,72.48,188.24,106.59,183.7,478.54,Single-ply,SBD,M
Boys,74.84,14,Logan Marchman,Ponder,72.39,181.44,102.06,190.51,474,Single-ply,SBD,M
Boys,74.84,15,Antwan Bradshaw,Fort Worth South Hills,74.21,181.44,111.13,181.44,474,Single-ply,SBD,M
Boys,74.84,16,Parker Purvis,Strawn,69.4,172.37,122.47,165.56,460.4,Single-ply,SBD,M
Boys,74.84,17,Carl Pendergrast,Rising Star,73.21,183.7,81.65,190.51,455.86,Single-ply,SBD,M
Boys,74.84,18,Dexter Loza,Aubrey,71.4,167.83,117.93,167.83,453.59,Single-ply,SBD,M
Boys,74.84,19,James Breaux,Santo,69.58,174.63,83.91,183.7,442.25,Single-ply,SBD,M
Boys,74.84,20,Jordan Weaver,Callisburg,71.76,151.95,83.91,192.78,428.64,Single-ply,SBD,M
Boys,74.84,21,Cody Jones,Ponder,67.86,174.63,79.38,170.1,424.11,Single-ply,SBD,M
Boys,74.84,22,Edgar Barrios,Coleman,70.58,161.03,108.86,154.22,424.11,Single-ply,SBD,M
Boys,74.84,23,Dustin Bennett,De Leon,68.49,145.15,108.86,163.29,417.3,Single-ply,SBD,M
Boys,74.84,24,Chris Dominguez,Sidney,73.3,142.88,95.25,170.1,408.23,Single-ply,SBD,M
Boys,74.84,25,Tyler Sullivan,Petrolia,68.95,158.76,83.91,158.76,401.43,Single-ply,SBD,M
Boys,74.84,26,Evan Scholer,Petrolia,73.3,136.08,88.45,165.56,390.09,Single-ply,SBD,M
Boys,74.84,27,Blake Hammonds,Coleman,74.12,149.69,83.91,151.95,385.55,Single-ply,SBD,M
Boys,74.84,28,Tony Ramirez,Aubrey,67.95,140.61,83.91,151.95,376.48,Single-ply,SBD,M
Boys,74.84,29,Jake Johnson #6,Santo,69.04,102.06,56.7,113.4,272.16,Single-ply,SBD,M
Boys,74.84,DQ,Daniel Juarez,Strawn,70.31,,,,,Single-ply,SBD,M
Boys,74.84,DQ,Billy Vogler,Tolar,74.84,,,,,Single-ply,SBD,M
Boys,74.84,DQ,Garrett Stuard,Coleman,74.84,,,,,Single-ply,SBD,M
Boys,74.84,DQ,Gabe Huerta,Bridgeport,68.04,156.49,106.59,,,Single-ply,SBD,M
Boys,74.84,DQ,Jaden Corbin,Bridgeport,74.39,163.29,106.59,,,Single-ply,SBD,M
Boys,74.84,DQ,Dawson Parrot,Olney,67.86,106.59,,,,Single-ply,SBD,M
Boys,74.84,DQ,Daniel Fielder,Mineral Wells,71.76,163.29,117.93,,,Single-ply,SBD,M
Boys,74.84,DQ,Pedro Lopez,Hillsboro,74.84,,,,,Single-ply,SBD,M
Boys,74.84,DQ,Carder Brooks,Hamilton,72.12,,,,,Single-ply,SBD,M
Boys,74.84,DQ,Omero Ortiz,Fort Worth South Hills,68.58,,,,,Single-ply,SBD,M
Boys,74.84,DQ,James Jackson,Callisburg,69.67,147.42,,,,Single-ply,SBD,M
Boys,74.84,DQ,Stephen Vasquez,Tolar,74.66,122.47,,,,Single-ply,SBD,M
Boys,74.84,DQ,Tri Hoang,Wichita Falls City View,71.94,,,,,Single-ply,SBD,M
Boys,74.84,DQ,Cy Wallace,Santo,71.58,136.08,,,,Single-ply,SBD,M
Boys,82.1,1,Jc Landers,Stephenville,80.56,231.33,136.08,226.8,594.21,Single-ply,SBD,M
Boys,82.1,2,Terrance Jackson,Wichita Falls City View,81.01,210.92,97.52,249.48,557.92,Single-ply,SBD,M
Boys,82.1,3,Stephen Harrell,Stephenville,81.28,215.46,120.2,215.46,551.11,Single-ply,SBD,M
Boys,82.1,4,Barron Montgomery,Hillsboro,81.83,195.04,142.88,192.78,530.7,Single-ply,SBD,M
Boys,82.1,5,Kyle Saunders,Peaster,81.74,201.85,124.74,201.85,528.44,Single-ply,SBD,M
Boys,82.1,6,Isaac Jiminez,San Saba,80.01,188.24,104.33,226.8,519.36,Single-ply,SBD,M
Boys,82.1,7,Cody Cossman,Ponder,80.38,213.19,124.74,181.44,519.36,Single-ply,SBD,M
Boys,82.1,8,Tim Abbott,Bonham,75.11,213.19,115.67,188.24,517.1,Single-ply,SBD,M
Boys,82.1,9,Aj Moore,Stephenville,81.01,215.46,108.86,192.78,517.1,Single-ply,SBD,M
Boys,82.1,10,Dj Fields,Bonham,81.83,213.19,113.4,176.9,503.49,Single-ply,SBD,M
Boys,82.1,11,Cody Morrison,Callisburg,80.56,172.37,104.33,208.65,485.34,Single-ply,SBD,M
Boys,82.1,12,Jacob Beckwith,Bangs,80.83,204.12,106.59,174.63,485.34,Single-ply,SBD,M
Boys,82.1,13,Alvaro Guzman,Fort Worth South Hills,81.19,147.42,97.52,170.1,415.04,Single-ply,SBD,M
Boys,82.1,14,Eberto Gonzales,De Leon,77.2,147.42,97.52,145.15,390.09,Single-ply,SBD,M
Boys,82.1,15,Jeffrey McClinton,Callisburg,77.47,147.42,79.38,163.29,390.09,Single-ply,SBD,M
Boys,82.1,16,Jessy Johnson,Perrin-Whitt,81.92,140.61,81.65,151.95,374.21,Single-ply,SBD,M
Boys,82.1,17,Chad Fleming #2,Petrolia,80.83,142.88,92.99,131.54,367.41,Single-ply,SBD,M
Boys,82.1,18,Scott Ramsey,Petrolia,80.01,142.88,72.57,131.54,347,Single-ply,SBD,M
Boys,82.1,DQ,Francisco Munoz,Sidney,82.1,,,,,Single-ply,SBD,M
Boys,82.1,DQ,Andrew Santibanez,Sidney,82.1,,,,,Single-ply,SBD,M
Boys,82.1,DQ,Ethan Smart,Sidney,82.1,,,,,Single-ply,SBD,M
Boys,82.1,DQ,Steven Prater,Venus,82.1,,,,,Single-ply,SBD,M
Boys,82.1,DQ,Luc Leal,Maypearl,81.01,190.51,111.13,,,Single-ply,SBD,M
Boys,82.1,DQ,Austin Hicks,Bridgeport,82.1,,,,,Single-ply,SBD,M
Boys,82.1,DQ,Justin Griffin,Aubrey,82.1,,,,,Single-ply,SBD,M
Boys,82.1,DQ,Dayne Lopez,Santo,81.01,129.27,,,,Single-ply,SBD,M
Boys,82.1,DQ,Reese Trotter,Santo,76.48,154.22,,,,Single-ply,SBD,M
Boys,82.1,DQ,Cole Nolen,Santo,80.83,136.08,,,,Single-ply,SBD,M
Boys,82.1,DQ,Ross Lopez,Santo,79.92,83.91,49.9,,,Single-ply,SBD,M
Boys,89.81,1,James Miller #3,Strawn,89.18,249.48,158.76,204.12,612.35,Single-ply,SBD,M
Boys,89.81,2,Jacob Heuring,Wichita Falls City View,84.28,238.14,113.4,229.06,580.6,Single-ply,SBD,M
Boys,89.81,3,Sean Willis,Glen Rose,86.55,185.97,124.74,233.6,544.31,Single-ply,SBD,M
Boys,99.79,4,Sam Atwood,Seymour,89.9,199.58,124.74,217.72,542.04,Single-ply,SBD,M
Boys,89.81,5,Kyler Koch,Iowa Park,86.55,219.99,124.74,190.51,535.24,Single-ply,SBD,M
Boys,89.81,6,Jose Aleman,Dublin,87,204.12,124.74,204.12,532.97,Single-ply,SBD,M
Boys,89.81,7,Christian Bosquez,Bangs,88.36,210.92,108.86,197.31,517.1,Single-ply,SBD,M
Boys,89.81,8,Blaine Garcia,De Leon,89.81,210.92,108.86,197.31,517.1,Single-ply,SBD,M
Boys,89.81,9,Max Palacio,San Saba,86.64,183.7,104.33,204.12,492.15,Single-ply,SBD,M
Boys,89.81,10,Adrian Reyes,Breckenridge,89.27,201.85,111.13,176.9,489.88,Single-ply,SBD,M
Boys,89.81,11,Carson Cray,Petrolia,83.64,181.44,113.4,188.24,483.08,Single-ply,SBD,M
Boys,89.81,12,Ben Evart,Granbury,85.82,167.83,108.86,195.04,471.74,Single-ply,SBD,M
Boys,89.81,13,Nick Lemmond,Seymour,83.28,170.1,111.13,181.44,462.66,Single-ply,SBD,M
Boys,89.81,14,Dominic Rosales,San Saba,88.09,174.63,113.4,174.63,462.66,Single-ply,SBD,M
Boys,89.81,15,Shelton Zarate,Coleman,88.09,176.9,104.33,181.44,462.66,Single-ply,SBD,M
Boys,89.81,16,Jake Herring,Olney,84.46,165.56,92.99,190.51,449.06,Single-ply,SBD,M
Boys,89.81,17,Richard Roper,Brady,89.45,190.51,95.25,154.22,439.98,Single-ply,SBD,M
Boys,89.81,18,Angel Barrios,Coleman,82.92,165.56,122.47,147.42,435.45,Single-ply,SBD,M
Boys,89.81,19,Charlie Thomas,Coleman,86.91,140.61,102.06,163.29,405.97,Single-ply,SBD,M
Boys,89.81,20,Jerry Don Fincher,Perrin-Whitt,84.23,106.59,63.5,113.4,283.5,Single-ply,SBD,M
Boys,89.81,DQ,Matt Robbins,Aubrey,89.81,,,,,Single-ply,SBD,M
Boys,89.81,DQ,Lane Labue,Bridgeport,88.9,192.78,113.4,,,Single-ply,SBD,M
Boys,89.81,DQ,David Arizola,Sidney,89.81,,,,,Single-ply,SBD,M
Boys,89.81,DQ,Cody Ferguson,Stephenville,85.91,,,,,Single-ply,SBD,M
Boys,89.81,DQ,Jared Smith,Petrolia,88.09,,,,,Single-ply,SBD,M
Boys,99.79,DQ,Brad Barker,Peaster,89.9,,,,,Single-ply,SBD,M
Boys,89.81,DQ,Bridger Seay,Santo,82.74,,,,,Single-ply,SBD,M
Boys,89.81,DQ,Andrew Watkins,Santo,88.09,,,,,Single-ply,SBD,M
Boys,89.81,DQ,Garrett Gulliford,Santo,87.82,163.29,,,,Single-ply,SBD,M
Boys,89.81,DQ,Dub Little,Strawn,84.37,,,,,Single-ply,SBD,M
Boys,89.81,DQ,Jacob McAnally,Brady,89.72,181.44,,,,Single-ply,SBD,M
Boys,89.81,DQ,Ben Mungia,Glen Rose,87.45,215.46,,,,Single-ply,SBD,M
Boys,99.79,1,Pat Cummings,Wichita Falls Rider,93.17,235.87,127.01,260.82,623.69,Single-ply,SBD,M
Boys,99.79,2,Travis Fair,Granbury,95.53,242.67,131.54,219.99,594.21,Single-ply,SBD,M
Boys,99.79,3,Aiavron Edwards,Stephenville,92.71,242.67,115.67,233.6,591.94,Single-ply,SBD,M
Boys,99.79,4,Isaiah Barnes,Burkburnett,98.16,226.8,136.08,222.26,585.13,Single-ply,SBD,M
Boys,99.79,5,Tyler Jones,Granbury,95.62,226.8,138.35,210.92,576.06,Single-ply,SBD,M
Boys,99.79,6,Greg Ormiston,Maypearl,97.25,233.6,117.93,222.26,573.79,Single-ply,SBD,M
Boys,99.79,7,Eric Avalos,Olney,93.53,226.8,124.74,204.12,555.65,Single-ply,SBD,M
Boys,99.79,8,Jacob Wheeler,Bonham,96.8,204.12,115.67,226.8,546.58,Single-ply,SBD,M
Boys,99.79,9,Padyn Giebler,Stephenville,95.53,204.12,117.93,208.65,530.7,Single-ply,SBD,M
Boys,99.79,10,Jeovanny Pastrano,Fort Worth South Hills,96.34,181.44,136.08,204.12,521.63,Single-ply,SBD,M
Boys,99.79,11,Tyson Henson,Bonham,96.8,224.53,102.06,195.04,521.63,Single-ply,SBD,M
Boys,99.79,12,Brad Shatto,Sadler S & S Cons,99.34,199.58,113.4,176.9,489.88,Single-ply,SBD,M
Boys,99.79,13,Anthony Garcia,Wichita Falls City View,97.25,190.51,104.33,192.78,487.61,Single-ply,SBD,M
Boys,99.79,14,Jeff Bybee,Santo,98.61,188.24,92.99,183.7,464.93,Single-ply,SBD,M
Boys,99.79,15,Francisco Cano,Fort Worth South Hills,91.17,170.1,92.99,172.37,435.45,Single-ply,SBD,M
Boys,99.79,16,Jeff Sanborn,Callisburg,90.99,158.76,79.38,138.35,376.48,Single-ply,SBD,M
Boys,99.79,DQ,Tyler Horne,Bridgeport,90.72,195.04,108.86,,,Single-ply,SBD,M
Boys,99.79,DQ,Eric Rodriguez,Aubrey,99.79,,,,,Single-ply,SBD,M
Boys,99.79,DQ,Justin Taylor,Comanche,99.06,201.85,142.88,,,Single-ply,SBD,M
Boys,99.79,DQ,Alejo Ponce,Hillsboro,99.79,,,,,Single-ply,SBD,M
Boys,99.79,DQ,Tanner Weyerts,San Saba,99.79,,,,,Single-ply,SBD,M
Boys,99.79,DQ,Jimmy Johnson,Glen Rose,95.8,272.16,149.69,,,Single-ply,SBD,M
Boys,99.79,DQ,Steven Plowman,Gordon,91.26,,,,,Single-ply,SBD,M
Boys,99.79,DQ,Kevan Nieto,Fort Worth South Hills,90.45,158.76,,,,Single-ply,SBD,M
Boys,99.79,DQ,Bonner Martin,Granbury,94.89,,,,,Single-ply,SBD,M
Boys,99.79,DQ,Josh Vela,Brady,93.26,,,,,Single-ply,SBD,M
Boys,99.79,DQ,Leo Medina,Breckenridge,91.26,215.46,117.93,,,Single-ply,SBD,M
Boys,99.79,DQ,Clay Hutch,Ponder,98.34,,,,,Single-ply,SBD,M
Boys,99.79,DQ,David Whited,Wichita Falls City View,99.7,197.31,,,,Single-ply,SBD,M
Boys,109.77,1,Thanh Hoang,Wichita Falls City View,107.23,285.76,149.69,278.96,714.41,Single-ply,SBD,M
Boys,109.77,2,Alex Aleman,Dublin,109.23,244.94,154.22,231.33,630.49,Single-ply,SBD,M
Boys,109.77,3,Austin Melvin,Stephenville,101.24,226.8,136.08,244.94,607.81,Single-ply,SBD,M
Boys,109.77,4,Taylor Smith,Bangs,107.23,254.01,145.15,208.65,607.81,Single-ply,SBD,M
Boys,109.77,5,Sam Lopez,Bangs,107.23,238.14,133.81,204.12,576.06,Single-ply,SBD,M
Boys,109.77,6,Justin Givens,Wichita Falls City View,106.68,215.46,117.93,238.14,571.53,Single-ply,SBD,M
Boys,109.77,7,Kirk Wallace,Granbury,107.23,219.99,136.08,210.92,566.99,Single-ply,SBD,M
Boys,109.77,8,Brett Mosher,Tolar,107.32,226.8,122.47,195.04,544.31,Single-ply,SBD,M
Boys,109.77,9,Tyler Ashman,Ponder,109.41,233.6,111.13,174.63,519.36,Single-ply,SBD,M
Boys,109.77,10,Will Sloan,San Saba,102.42,192.78,117.93,195.04,505.76,Single-ply,SBD,M
Boys,109.77,11,Jonny Davenport,Granbury,105.14,204.12,111.13,174.63,489.88,Single-ply,SBD,M
Boys,109.77,12,Alfrdeo Librado,Hillsboro,107.86,183.7,131.54,165.56,480.81,Single-ply,SBD,M
Boys,109.77,DQ,Markus Jimenez,Breckenridge,109.77,,,,,Single-ply,SBD,M
Boys,109.77,DQ,Blaz Hernandez,Bridgeport,103.42,176.9,129.27,,,Single-ply,SBD,M
Boys,109.77,DQ,Gene Griffin,Petrolia,106.78,,,,,Single-ply,SBD,M
Boys,109.77,DQ,Gabe Price,Santo,106.23,174.63,,,,Single-ply,SBD,M
Boys,109.77,DQ,Dakota Larson,Venus,109.5,192.78,102.06,,,Single-ply,SBD,M
Boys,124.74,1,Dj Vandenberge,Stephenville,119.93,294.84,170.1,199.58,664.51,Single-ply,SBD,M
Boys,124.74,2,Colt Caffey,Sidney,117.75,229.06,158.76,258.55,646.37,Single-ply,SBD,M
Boys,124.74,3,Jarrett Anderson,Bangs,116.57,254.01,156.49,226.8,637.3,Single-ply,SBD,M
Boys,124.74,4,Ben Dammers,Stephenville,119.2,238.14,172.37,226.8,637.3,Single-ply,SBD,M
Boys,124.74,5,Tyler Seale,Wichita Falls Rider,124.65,240.4,136.08,238.14,614.62,Single-ply,SBD,M
Boys,124.74,6,Damon Hinrichs,Millsap,120.56,249.48,154.22,206.38,610.08,Single-ply,SBD,M
Boys,124.74,7,Zac Perez,Glen Rose,116.03,244.94,131.54,199.58,576.06,Single-ply,SBD,M
Boys,124.74,8,Jacob Barton,Callisburg,115.12,231.33,131.54,199.58,562.45,Single-ply,SBD,M
Boys,124.74,9,Joe King,Breckenridge,123.29,208.65,131.54,192.78,532.97,Single-ply,SBD,M
Boys,124.74,10,Marcilo Camerillo,Brady,121.56,210.92,113.4,206.38,530.7,Single-ply,SBD,M
Boys,124.74,11,Brandon Lane,Tolar,118.21,181.44,106.59,158.76,446.79,Single-ply,SBD,M
Boys,124.74,DQ,Sabastian Esquivel,Bridgeport,124.74,,,,,Single-ply,SBD,M
Boys,124.74,DQ,A'Donnis Tatum,Fort Worth South Hills,124.74,,,,,Single-ply,SBD,M
Boys,124.74,DQ,Marceline Felipe,Coleman,124.74,,,,,Single-ply,SBD,M
Boys,124.74,DQ,Edgar Salvador,Hillsboro,118.66,183.7,,,,Single-ply,SBD,M
Boys,124.74+,1,Chance Furniss,Bangs,145.97,299.37,188.24,226.8,714.41,Single-ply,SBD,M
Boys,124.74+,2,Russell Cole,Stephenville,125.28,301.64,170.1,226.8,698.53,Single-ply,SBD,M
Boys,124.74+,3,Wesley Gray,Fort Worth South Hills,141.88,272.16,158.76,240.4,671.32,Single-ply,SBD,M
Boys,124.74+,4,Carter Blenden,Crawford,139.16,240.4,127.01,231.33,598.74,Single-ply,SBD,M
Boys,124.74+,5,Travis Bienicewicz,Wichita Falls City View,159.21,249.48,147.42,199.58,596.47,Single-ply,SBD,M
Boys,124.74+,6,Max Meador,Brady,148.23,233.6,111.13,231.33,576.06,Single-ply,SBD,M
Boys,124.74+,7,Diego Montoya,San Saba,138.35,226.8,136.08,176.9,539.77,Single-ply,SBD,M
Boys,124.74+,8,Tanner Kissling,Bonham,146.42,222.26,120.2,195.04,537.51,Single-ply,SBD,M
Boys,124.74+,9,Gavin Hespe,Tolar,134.44,181.44,88.45,158.76,428.64,Single-ply,SBD,M
Boys,124.74+,DQ,Manny Molina,Petrolia,129.27,,,,,Single-ply,SBD,M
Boys,124.74+,DQ,Bobby Lynch,Burleson,131.54,,,,,Single-ply,SBD,M
Boys,124.74+,DQ,Manuel Cruz,Coleman,129.27,,,,,Single-ply,SBD,M
Boys,124.74+,DQ,Kolton Moore,Millsap,125.01,254.01,,,,Single-ply,SBD,M
