Name,Sex,Equipment,Event,Division,BodyweightKg,WeightClassKg,Squat1Kg,Squat2Kg,Squat3Kg,Best3SquatKg,Bench1Kg,Bench2Kg,Bench3Kg,Best3BenchKg,Deadlift1Kg,Deadlift2Kg,Deadlift3Kg,Best3DeadliftKg,TotalKg,Place
Caroline Bates,F,Raw,SBD,FR-O,47.8,48,35,40,45,45,30,32.5,37.5,37.5,57.5,62.5,70,70,152.5,1
Chevelle Ehrlick,F,Raw,SBD,FR-Jr,48.9,52,75,82.5,90,90,45,47.5,50,50,107.5,117.5,122.5,122.5,262.5,1
Michelle McHugh,F,Raw,SBD,FR-O,50.8,52,-102.5,102.5,110,110,62.5,67.5,72.5,72.5,102.5,112.5,-125,112.5,295,1
Hope Stremcha,F,Raw,SBD,FR-O,54.8,56,-82.5,82.5,90,90,55,65,-70,65,85,92.5,102.5,102.5,257.5,1
Hai Ly Tran,F,Raw,SBD,FR-O,56,56,82.5,-90,-90,82.5,42.5,45,-47.5,45,87.5,95,-105,95,222.5,2
Michele Muraski,F,Raw,SBD,FR-M1a,58.4,60,55,62.5,67.5,67.5,47.5,50,-52.5,50,107.5,115,120,120,237.5,1
Carrie McCrudden,F,Raw,SBD,FR-M1a,58.8,60,65,70,75,75,40,42.5,-47.5,42.5,80,87.5,-95,87.5,205,2
Nandi Xie,F,Raw,SBD,FR-O,59.7,60,85,90,-95,90,60,62.5,-67.5,62.5,115,120,125,125,277.5,1
Hannah Roberts,F,Raw,SBD,FR-O,59.5,60,40,45,47.5,47.5,30,32.5,35,35,62.5,70,77.5,77.5,160,2
Valerie Wilkins,F,Raw,SBD,FR-Jr,65.3,67.5,107.5,112.5,117.5,117.5,60,62.5,-65,62.5,110,120,-125,120,300,1
Caylen Coxall,F,Raw,SBD,FR-O,74.4,75,117.5,125,-130,125,65,-72.5,-72.5,65,120,130,-137.5,130,320,1
Brook Anderson,F,Single-ply,SBD,F-O,67.7,75,137.5,142.5,-155,142.5,90,95,102.5,102.5,140,147.5,152.5,152.5,397.5,1
Melissa Siders,F,Raw,SBD,FR-M2a,82,82.5,85,92.5,95,95,40,45,-52.5,45,105,117.5,130,130,270,1
Libbi Palmer,F,Raw,SBD,FR-M1a,119,90+,90,100,110,110,65,70,72.5,72.5,142.5,155,165,165,347.5,1
Sherrice Fox,F,Raw,SBD,FR-O,120,90+,125,130,135,135,80,82.5,85,85,155,160,167.5,167.5,387.5,1
Logan Gaudreau,M,Raw,SBD,MR-G,26.9,52,18,-20,20,20,8,10.5,13,13,20,25,30,30,63,G
David Berg,M,Raw,SBD,MR-Y3,43,52,-42.5,42.5,50,50,30,35,-37.5,35,70,75,85,85,170,1
Michael Oliver,M,Raw,SBD,MR-T1,66.1,67.5,57.5,72.5,80,80,42.5,47.5,52.5,52.5,85,102.5,110,110,242.5,1
Hiram Saucedo,M,Raw,SBD,MR-T2,64.7,67.5,60,65,80,80,70,75,-80,75,100,112.5,125,125,280,1
Michael Berrian,M,Single-ply,SBD,M-T1,72.9,75,115,130,137.5,137.5,95,-107.5,-107.5,95,150,-177.5,177.5,177.5,410,1
Marcus Naillon,M,Raw,SBD,MR-T2,72.3,75,120,125,135,135,75,80,-92.5,80,177.5,182.5,195,195,410,1
Travis Brooks,M,Raw,SBD,MR-Jr,74.4,75,142.5,152.5,162.5,162.5,102.5,110,-120,110,155,170,-180,170,442.5,1
Carlos Colon,M,Raw,SBD,MR-T1,78.7,82.5,50,-55,60,60,50,55,57.5,57.5,70,80,-105,80,197.5,1
Jesus Apodaca,M,Raw,SBD,MR-T2,79.6,82.5,100,132.5,140,140,72.5,82.5,87.5,87.5,127.5,180,-182.5,180,407.5,1
Bret Wagner,M,Raw,SBD,MR-T3,79.5,82.5,132.5,142.5,157.5,157.5,120,-132.5,-132.5,120,197.5,207.5,-247.5,207.5,485,1
Ryne Golesh,M,Raw,SBD,MR-Jr,78.6,82.5,182.5,-205,-205,182.5,115,125,135,135,192.5,205,-215,205,522.5,1
Austin Thompson,M,Raw,SBD,MR-Jr,80.3,82.5,152.5,160,-165,160,110,-117.5,117.5,117.5,197.5,205,207.5,207.5,485,2
Jonathan Kuhlman,M,Raw,SBD,MR-Jr,89.8,90,167.5,180,-185,180,135,142.5,-150,142.5,225,240,250,250,572.5,1
Ben Kissam,M,Raw,SBD,MR-Jr,88.4,90,175,185,190,190,-102.5,102.5,-110,102.5,227.5,-235,,227.5,520,2
Howie Hill,M,Raw,SBD,MR-T3,99.8,100,165,180,185,185,110,117.5,-125,117.5,225,-242.5,-242.5,225,527.5,1
Brent Donaldson,M,Raw,SBD,MR-Jr,96,100,162.5,165,175,175,117.5,125,130,130,205,215,-227.5,215,520,1
Jonah Noeldner,M,Raw,SBD,MR-T3,107,110,237.5,250,-260,250,142.5,160,-165,160,-260,260,,260,670,1
Christopher Pates,M,Single-ply,SBD,M-M2b,67.2,67.5,-137.5,147.5,,147.5,102.5,-105,-105,102.5,160,182.5,,182.5,432.5,1
Vartan Khachaturov,M,Raw,SBD,MR-O,66.6,67.5,140,145,-150,145,92.5,100,102.5,102.5,185,190,-197.5,190,437.5,1
Brett Crockett,M,Raw,SBD,MR-O,66.3,67.5,125,137.5,-147.5,137.5,95,105,-112.5,105,150,167.5,175,175,417.5,2
Antonio Sanchez,M,Raw,SBD,MR-O,66.1,67.5,110,-120,120,120,105,110,-115,110,167.5,175,182.5,182.5,412.5,3
Mark Sigala,M,Single-ply,SBD,M-M2a,73.8,75,160,-170,182.5,182.5,130,137.5,-142.5,137.5,227.5,235,,235,555,1
Anthony Truong,M,Raw,SBD,MR-O,72.6,75,-152.5,152.5,-162.5,152.5,115,-127.5,-127.5,115,185,192.5,202.5,202.5,470,1
Shane Landenberger,M,Single-ply,SBD,M-M1a,81.3,82.5,217.5,-227.5,227.5,227.5,137.5,147.5,155,155,220,235,-247.5,235,617.5,1
Robert Odom,M,Raw,SBD,MR-M1a,78.3,82.5,155,-167.5,-170,155,110,-117.5,117.5,117.5,175,190,205,205,477.5,1
Alvin Ueunten,M,Raw,SBD,MR-M1b,82.5,82.5,192.5,215,227.5,227.5,137.5,147.5,155,155,227.5,252.5,-257.5,252.5,635,1
James Cushing-Murray,M,Raw,SBD,MR-M4a,82,82.5,75,-80,85,85,60,62.5,,62.5,87.5,95,100,100,247.5,1
Shane Landenberger,M,Single-ply,SBD,M-M1a,81.3,82.5,217.5,-227.5,227.5,227.5,137.5,147.5,155,155,220,235,-247.5,235,617.5,2
Juan Williams,M,Raw,SBD,MR-O,81.9,82.5,172.5,180,187.5,187.5,140,145,-147.5,145,227.5,232.5,237.5,237.5,570,1
Anthony Torsell,M,Raw,SBD,MR-O,80.4,82.5,205,-230,-230,205,140,150,155,155,180,190,205,205,565,2
John Walter,M,Raw,SBD,MR-O,81.8,82.5,155,162.5,167.5,167.5,130,135,-137.5,135,200,210,215,215,517.5,3
Chris Barchetti,M,Raw,SBD,MR-O,81.1,82.5,160,167.5,182.5,182.5,115,122.5,-132.5,122.5,187.5,-200,200,200,505,4
Ryan Foley,M,Raw,SBD,MR-O,82.4,82.5,142.5,150,160,160,-100,110,-115,110,185,195,205,205,475,5
Leo Meli,M,Raw,SBD,MR-O,78.6,82.5,137.5,150,162.5,162.5,105,117.5,-127.5,117.5,170,187.5,-205,187.5,467.5,6
Philip Starhill,M,Raw,SBD,MR-O,80.4,82.5,135,147.5,160,160,70,75,77.5,77.5,142.5,165,182.5,182.5,420,7
Michael Williams,M,Raw,SBD,MR-O,81.2,82.5,152.5,165,-170,165,-107.5,-115,-115,,,,,,,DQ
Ben Stricklin,M,Single-ply,SBD,M-O,89.3,90,240,-260,-260,240,147.5,152.5,-162.5,152.5,240,-257.5,-257.5,240,632.5,1
Jeff Van Natter,M,Raw,SBD,MR-M1a,88.7,90,125,130,-132.5,130,110,-112.5,112.5,112.5,165,172.5,175,175,417.5,1
Zack Newnam,M,Raw,SBD,MR-O,89.3,90,230,245,-260,245,137.5,-142.5,142.5,142.5,230,245,257.5,257.5,645,1
Adrian Martinez,M,Raw,SBD,MR-O,87.6,90,-230,245,260,260,130,-137.5,-137.5,130,-230,240,252.5,252.5,642.5,2
Chad Singleton,M,Raw,SBD,MR-O,89.6,90,160,172.5,182.5,182.5,125,132.5,-135,132.5,245,267.5,-272.5,267.5,582.5,3
Ben Rudman,M,Raw,SBD,MR-O,88.6,90,182.5,192.5,-205,192.5,127.5,137.5,-142.5,137.5,210,227.5,-235,227.5,557.5,4
Jacob Covey,M,Raw,SBD,MR-O,88.8,90,-177.5,177.5,-185,177.5,105,112.5,-120,112.5,200,207.5,215,215,505,5
Tim Woodson,M,Raw,SBD,MR-O,88.2,90,137.5,150,-160,150,122.5,127.5,-132.5,127.5,190,197.5,-205,197.5,475,6
Adam Fossceco,M,Raw,SBD,MR-O,89.1,90,-112.5,112.5,120,120,102.5,107.5,-110,107.5,182.5,195,-205,195,422.5,7
Aaron Heredia,M,Raw,SBD,MR-O,88,90,85,102.5,120,120,100,-115,-115,100,130,150,170,170,390,8
Ross Haney,M,Single-ply,SBD,M-O,90.3,100,-215,-215,-215,,-125,,,,,,,,,DQ
Tony Buckley,M,Single-ply,SBD,M-O,97.1,100,-150,-150,150,150,-102.5,102.5,105,105,205,-210,210,210,465,1
Albert Lopez,M,Raw,SBD,MR-M1b,95.5,100,185,197.5,-205,197.5,137.5,145,152.5,152.5,210,232.5,,232.5,582.5,1
Tom McNevin,M,Raw,SBD,MR-M3a,94.4,100,120,130,135,135,95,100,-102.5,100,195,215,-225,215,450,1
Bryce Lewis,M,Raw,SBD,MR-O,97.6,100,257.5,267.5,272.5,272.5,182.5,190,195,195,300,310,-317.5,310,777.5,1
Dan Gresh,M,Raw,SBD,MR-O,94.4,100,195,210,217.5,217.5,125,135,140,140,235,247.5,-255,247.5,605,2
Sean Reagan,M,Raw,SBD,MR-O,96.8,100,-190,190,-197.5,190,160,170,-177.5,170,232.5,242.5,-255,242.5,602.5,3
Matthew Haxmeier,M,Raw,SBD,MR-O,98.3,100,170,185,-195,185,127.5,137.5,-145,137.5,205,220,-225,220,542.5,4
Benjamin Rast,M,Raw,SBD,MR-O,92.9,100,150,175,-187.5,175,100,110,-120,110,205,230,250,250,535,5
Mike Skelton,M,Raw,SBD,MR-M1b,109,110,227.5,-245,-250,227.5,177.5,185,-190,185,245,260,272.5,272.5,685,1
Pete Berg,M,Raw,SBD,MR-M2a,109,110,-182.5,182.5,190,190,125,132.5,137.5,137.5,125,185,195,195,522.5,1
Robert Walter,M,Raw,SBD,MR-M2b,105,110,160,172.5,182.5,182.5,130,135,,135,235,250,260,260,577.5,1
Mark Sampson,M,Raw,SBD,MR-M2b,108,110,147.5,170,182.5,182.5,102.5,112.5,115,115,147.5,165,182.5,182.5,480,2
Scot DuFour,M,Raw,SBD,MR-O,104,110,167.5,172.5,182.5,182.5,120,125,130,130,217.5,232.5,242.5,242.5,555,1
Lou Fossceco,M,Raw,SBD,MR-M2a,115,125,162.5,170,177.5,177.5,157.5,167.5,-172.5,167.5,202.5,210,-215,210,555,1
David Moore #1,M,Raw,SBD,MR-O,115,125,230,247.5,260,260,150,160,-167.5,160,240,262.5,275,275,695,1
George Whyte,M,Raw,SBD,MR-O,115,125,172.5,182.5,187.5,187.5,127.5,135,-140,135,262.5,272.5,280,280,602.5,2
Jose Ramirez,M,Raw,SBD,MR-O,115,125,182.5,190,202.5,202.5,142.5,155,-170,155,185,197.5,215,215,572.5,3
Harry Heyman,M,Single-ply,SBD,M-M4a,121,125,20,,,20,20,,,20,65,,,65,105,1
Terry Moon,M,Raw,SBD,MR-M2a,129,125+,115,120,130,130,-85,85,90,90,127.5,140,155,155,375,1
Jeremiah Todd,M,Raw,SBD,MR-O,125.01,125+,235,245,-257.5,245,195,205,-215,205,225,245,-262.5,245,695,1
Jeremy Everding,M,Raw,SBD,MR-O,128,125+,195,-205,-205,195,122.5,130,-135,130,240,255,-257.5,255,580,2
Caroline Bates,F,Raw,B,FR-O,47.8,48,,,,,30,32.5,37.5,37.5,,,,,37.5,1
Hope Stremcha,F,Raw,B,FR-O,54.8,56,,,,,55,65,-70,65,,,,,65,1
Volodymyr Narolskyy,M,Single-ply,B,M-O,86.3,90,,,,,265,-275,-280,265,,,,,265,1
Bob Falagrady,M,Single-ply,B,M-O,89.3,90,,,,,165,170,172.5,172.5,,,,,172.5,2
Edward Yue,M,Raw,B,MR-M2a,79.6,82.5,,,,,100,110,-115,110,,,,,110,1
Jeff Wilson,M,Raw,B,MR-M2a,89.4,90,,,,,142.5,147.5,155,155,,,,,155,1
Eric Chastang,M,Raw,B,MR-O,74.5,75,,,,,142.5,-147.5,-147.5,142.5,,,,,142.5,1
Derek Nettingham,M,Raw,B,MR-O,79.5,82.5,,,,,160,167.5,170,170,,,,,170,1
Justin Raddatz,M,Raw,B,MR-O,80.5,82.5,,,,,142.5,155,-167.5,155,,,,,155,2
Frank Baja,M,Raw,B,MR-M3a,115,125,,,,,102.5,107.5,110,110,,,,,110,1
George Whyte,M,Raw,B,MR-O,115,125,,,,,127.5,135,-140,135,,,,,135,1
Sergy Shadyun,M,Single-ply,B,M-M2b,115,125,,,,,175,-185,185,185,,,,,185,1
