Division,WeightClassKg,Place,Name,Team,BodyweightKg,Best3SquatKg,Best3BenchKg,Best3DeadliftKg,TotalKg,Equipment,Event,Sex
Boys,51.71,1,Shawn Moore,Mineral Wells,51.71,113.4,68.04,113.4,294.84,Single-ply,SBD,M
Boys,51.71,DQ,Mark Pina,Bridgeport,49.44,,,,,Single-ply,SBD,M
Boys,55.79,1,Korey Grant,Weatherford,55.16,142.88,86.18,147.42,376.48,Single-ply,SBD,M
Boys,55.79,2,Garrett Upshaw,Decatur,54.25,122.47,81.65,129.27,333.39,Single-ply,SBD,M
Boys,55.79,3,Bryan Torres,Bridgeport,55.79,97.52,52.16,102.06,251.74,Single-ply,SBD,M
Boys,59.87,1,Xavier Parker,Mineral Wells,59.87,181.44,97.52,195.04,474,Single-ply,SBD,M
Boys,59.87,2,Alexis Rodriguez,Decatur,59.69,167.83,95.25,172.37,435.45,Single-ply,SBD,M
Boys,59.87,3,Dominic Gross,Decatur,59.6,129.27,83.91,136.08,349.27,Single-ply,SBD,M
Boys,59.87,4,Daniel Rodriguez,Decatur,59.87,124.74,83.91,136.08,344.73,Single-ply,SBD,M
Boys,59.87,5,Dalton Gross,Decatur,59.78,127.01,83.91,131.54,342.46,Single-ply,SBD,M
Boys,59.87,6,Aiden McComis,Bridgeport,56.43,102.06,56.7,106.59,265.35,Single-ply,SBD,M
Boys,67.13,1,Kylen Hart,Weatherford,66.13,192.78,122.47,185.97,501.22,Single-ply,SBD,M
Boys,67.13,2,Cesar Acosta,Decatur,66.32,181.44,117.93,172.37,471.74,Single-ply,SBD,M
Boys,67.13,3,Landon Herring,Bridgeport,64.86,149.69,81.65,156.49,387.82,Single-ply,SBD,M
Boys,67.13,4,Camden Richards,Mineral Wells,62.14,124.74,61.23,161.03,347,Single-ply,SBD,M
Boys,67.13,5,Ryder Rhodes,Bridgeport,63.14,83.91,77.11,129.27,290.3,Single-ply,SBD,M
Boys,67.13,DQ,Brandon Torres,Bridgeport,67.13,,,,,Single-ply,SBD,M
Boys,74.84,1,Colby White,Bridgeport,73.3,204.12,104.33,219.99,528.44,Single-ply,SBD,M
Boys,74.84,2,Colton Ligon,Graham,71.85,158.76,90.72,161.03,410.5,Single-ply,SBD,M
Boys,74.84,DQ,Devin Salazar,Mineral Wells,73.39,,,,,Single-ply,SBD,M
Boys,74.84,DQ,Edgar Tejada,Mineral Wells,74.84,,,,,Single-ply,SBD,M
Boys,82.1,1,Landon Hebert,Graham,82.1,210.92,113.4,201.85,526.17,Single-ply,SBD,M
Boys,82.1,2,Christian Medina,Weatherford,82.1,185.97,136.08,190.51,512.56,Single-ply,SBD,M
Boys,82.1,3,Carlos Amaro,Weatherford,81.83,185.97,124.74,181.44,492.15,Single-ply,SBD,M
Boys,82.1,4,Reese Cannon,Decatur,80.38,172.37,111.13,192.78,476.27,Single-ply,SBD,M
Boys,82.1,5,Jared Singleton,Mineral Wells,79.92,174.63,111.13,181.44,467.2,Single-ply,SBD,M
Boys,82.1,6,Jj Lee,Graham,78.02,183.7,102.06,179.17,464.93,Single-ply,SBD,M
Boys,82.1,7,Tanner Marlett,Bridgeport,79.38,185.97,88.45,161.03,435.45,Single-ply,SBD,M
Boys,82.1,8,Anotonio Cano,Bridgeport,82.1,181.44,102.06,147.42,430.91,Single-ply,SBD,M
Boys,82.1,DQ,Tanner Knox,Weatherford,80.65,,,,,Single-ply,SBD,M
Boys,89.81,1,Ethan Herron,Weatherford,89.81,276.69,158.76,235.87,671.32,Single-ply,SBD,M
Boys,89.81,2,Ryan Goodwin,Mineral Wells,88.27,219.99,136.08,204.12,560.19,Single-ply,SBD,M
Boys,89.81,3,Nathan Selman,Decatur,85.91,215.46,122.47,199.58,537.51,Single-ply,SBD,M
Boys,89.81,4,Kaymin Flick,Decatur,87.36,206.38,117.93,188.24,512.56,Single-ply,SBD,M
Boys,89.81,5,JW Ethridge,Mineral Wells,88.63,170.1,99.79,188.24,458.13,Single-ply,SBD,M
Boys,99.79,1,Jonah Maston,Mineral Wells,92.9,249.48,136.08,242.67,628.23,Single-ply,SBD,M
Boys,99.79,2,Matteo Carrizales,Decatur,98.16,238.14,151.95,229.06,619.15,Single-ply,SBD,M
Boys,99.79,3,Isaiah Baeza,Mineral Wells,96.43,226.8,120.2,201.85,548.85,Single-ply,SBD,M
Boys,99.79,4,Victor Davila,Weatherford,94.71,181.44,147.42,183.7,512.56,Single-ply,SBD,M
Boys,99.79,5,Dylan Songer,Weatherford,93.35,199.58,120.2,181.44,501.22,Single-ply,SBD,M
Boys,99.79,6,Longan Bond,Graham,92.62,183.7,88.45,174.63,446.79,Single-ply,SBD,M
Boys,99.79,7,Cade Peavey,Bridgeport,94.35,149.69,102.06,183.7,435.45,Single-ply,SBD,M
Boys,99.79,8,Jacob O'Dell,Bridgeport,97.34,161.03,95.25,156.49,412.77,Single-ply,SBD,M
Boys,99.79,DQ,Skyler Nelson,Bridgeport,96.8,,,,,Single-ply,SBD,M
Boys,109.77,1,Angel Esquivel,Weatherford,108.5,238.14,167.83,229.06,635.03,Single-ply,SBD,M
Boys,109.77,2,Cayden Markus,Weatherford,109.32,208.65,138.35,201.85,548.85,Single-ply,SBD,M
Boys,109.77,3,Jake O'Harra,Weatherford,109.77,192.78,136.08,163.29,492.15,Single-ply,SBD,M
Boys,109.77,DQ,Brant Coley,Graham,107.32,,,,,Single-ply,SBD,M
Boys,109.77,DQ,Jayden Conner,Weatherford,101.15,,,,,Single-ply,SBD,M
Boys,109.77,DQ,Isaac Vasquez,Bridgeport,100.7,,,,,Single-ply,SBD,M
Boys,124.74,1,Julian Casias,Decatur,119.57,272.16,174.63,260.82,707.6,Single-ply,SBD,M
Boys,124.74,2,Quinton Pearson,Weatherford,112.31,231.33,142.88,199.58,573.79,Single-ply,SBD,M
Boys,124.74,3,Aaron Sanchez,Bridgeport,112.49,226.8,124.74,183.7,535.24,Single-ply,SBD,M
Boys,124.74,4,Ayden Mast,Decatur,112.22,215.46,122.47,192.78,530.7,Single-ply,SBD,M
Boys,124.74+,1,Cayde Taylor,Weatherford,125.65,249.48,176.9,229.06,655.44,Single-ply,SBD,M
Boys,124.74+,2,Keaton Jordan,Decatur,131,256.28,154.22,183.7,594.21,Single-ply,SBD,M
Boys,124.74+,3,Anderson Ramirez,Decatur,139.07,231.33,145.15,208.65,585.13,Single-ply,SBD,M
Boys,124.74+,4,Chris Thompson,Bridgeport,139.16,197.31,113.4,192.78,503.49,Single-ply,SBD,M
Boys,124.74+,DQ,Moses Holmes,Decatur,132.63,,,,,Single-ply,SBD,M
Boys,,NS,Klayton Reed,Graham,,,,,,Single-ply,SBD,M
Boys,,NS,Tommy Mercer,Graham,,,,,,Single-ply,SBD,M
